Place,Name,BirthYear,WeightClassKg,BodyweightKg,Country,Bench1Kg,Bench2Kg,Bench3Kg,Best3BenchKg,TotalKg,Sex,Event,Equipment,Division
1,Eva Svjanteková,1973,44,44,Slovakia,80,85,90,90,90,F,B,Single-ply,Open
2,Ela Kleszczynska,1981,44,43.9,Poland,75,82.5,87.5,87.5,87.5,F,B,Single-ply,Open
3,Justyna Kozdryk,1980,44,41.3,Poland,72.5,-80,85,85,85,F,B,Single-ply,Open
1,Hanna Svahn,1961,48,47.9,Denmark,85,90,-95,90,90,F,B,Single-ply,Open
2,Mart Kleszciynska,1979,48,47.3,Poland,77.5,82.5,85,85,85,F,B,Single-ply,Open
3,Natali Yasenetska,1968,48,47.8,Ukraine,77.5,-80,82.5,82.5,82.5,F,B,Single-ply,Open
4,Virva-Tuul Arpala,1969,48,47.7,Finland,80,-85,-85,80,80,F,B,Single-ply,Open
5,Iina Laine,1966,48,47.6,Finland,-77.5,77.5,-80,77.5,77.5,F,B,Single-ply,Open
DQ,Doris Illeditsch,1962,48,48,Germany,-82.5,-82.5,-82.5,,,F,B,Single-ply,Open
1,Marion Braun,1970,52,51.3,Austria,92.5,97.5,100,100,100,F,B,Single-ply,Open
2,Riitt Liimatainen,1963,52,51.9,Sweden,92.5,97.5,-100,97.5,97.5,F,B,Single-ply,Open
3,Mervi Sirkiä,1972,52,51.9,Finland,-85,-85,85,85,85,F,B,Single-ply,Open
4,Magda Podhorecka,1984,52,50.4,Poland,72.5,77.5,-80,77.5,77.5,F,B,Single-ply,Open
5,Alona Kuske,1981,52,51.4,Latvia,55,-60,-60,55,55,F,B,Single-ply,Open
1,Lubov Belova,1960,56,55.9,Belarus,110,115,120,120,120,F,B,Single-ply,Open
2,Elena Petrunina,1976,56,55.7,Russia,95,102.5,105,105,105,F,B,Single-ply,Open
3,Jadwiga Radwanska,1975,56,55.9,Poland,80,85,-95,85,85,F,B,Single-ply,Open
4,Zanna Korestelova,1966,56,55.2,Latvia,70,75,-77.5,75,75,F,B,Single-ply,Open
1,Juliya Zhylskaya,1978,60,59.6,Belarus,-110,112.5,120,120,120,F,B,Single-ply,Open
2,Dana Matejova,1975,60,59,Slovakia,105,110,-117.5,110,110,F,B,Single-ply,Open
3,Diana Sidorova,1975,60,59.6,Russia,100,105,107.5,107.5,107.5,F,B,Single-ply,Open
4,Ute Villwock,1967,60,58.7,Germany,-95,-95,100,100,100,F,B,Single-ply,Open
5,Birgi Hammarström,1964,60,58.7,Sweden,87.5,-92.5,-92.5,87.5,87.5,F,B,Single-ply,Open
1,Clara Kasbarian,1959,67.5,67,France,132.5,135,137.5,137.5,137.5,F,B,Single-ply,Open
2,Tatyan Danilevich,1972,67.5,65.8,Russia,130,-132.5,-132.5,130,130,F,B,Single-ply,Open
3,Elena Kuleshova,1979,67.5,65.1,Russia,-127.5,127.5,-130,127.5,127.5,F,B,Single-ply,Open
4,Izabela Cieslak,1973,67.5,66.1,Poland,125,-130,-130,125,125,F,B,Single-ply,Open
5,Petra Stehlíková,1966,67.5,66.8,Czechia,112.5,117.5,,117.5,117.5,F,B,Single-ply,Open
6,Helena Svensson,1975,67.5,66.1,Sweden,97.5,102.5,105,105,105,F,B,Single-ply,Open
7,Maria Koskinen,1977,67.5,67,Finland,90,-97.5,-97.5,90,90,F,B,Single-ply,Open
8,Colette Pendry,1968,67.5,62.8,UK,75,80,82.5,82.5,82.5,F,B,Single-ply,Open
9,Edyta Bosak,1974,67.5,64.1,Poland,80,-87.5,-87.5,80,80,F,B,Single-ply,Open
1,Anna Terentyeva,1968,75,72.6,Russia,142.5,150,152.5,152.5,152.5,F,B,Single-ply,Open
2,Tamara Bahriy,1974,75,72.4,Ukraine,130,135,140,140,140,F,B,Single-ply,Open
3,Andrea Kubínová,1974,75,73.8,Czechia,127.5,135,-142.5,135,135,F,B,Single-ply,Open
4,Åsa Halvarsson,1961,75,74,Sweden,-110,110,-112.5,110,110,F,B,Single-ply,Open
5,Anzela Romanovica,1963,75,74.4,Latvia,100,105,110,110,110,F,B,Single-ply,Open
6,Yvonne van der Stoep,1960,75,67.8,Netherlands,100,-105,-105,100,100,F,B,Single-ply,Open
7,Danuta Urbaniak,1972,75,73.8,Poland,92.5,-95,-95,92.5,92.5,F,B,Single-ply,Open
8,Kristii Blinnikka,1979,75,75,Finland,85,92.5,-100,92.5,92.5,F,B,Single-ply,Open
DQ,Jeļena Ivanele,1960,75,67.7,Latvia,-80,,-80,,,F,B,Single-ply,Open
1,Elena Yurik,1977,82.5,76.8,Russia,130,132.5,-135,132.5,132.5,F,B,Single-ply,Open
2,Leila Duhem,1963,82.5,82,France,120,125,130,130,130,F,B,Single-ply,Open
3,Simone Gums,1968,82.5,80.1,Germany,110,115,-120,115,115,F,B,Single-ply,Open
4,Eva Speth,1954,82.5,81.2,Germany,-110,-110,110,110,110,F,B,Single-ply,Open
5,A DziewiczKiewicz,1979,82.5,75.1,Poland,87.5,-92.5,95,95,95,F,B,Single-ply,Open
1,Irina Naskripnyak,1960,90,89.6,Russia,132.5,140,142.5,142.5,142.5,F,B,Single-ply,Open
2,Svetlana Paltseva,1969,90,90,Russia,130,137.5,-145,137.5,137.5,F,B,Single-ply,Open
3,Rita Kistenmacher,1960,90,88.9,Germany,120,127.5,132.5,132.5,132.5,F,B,Single-ply,Open
4,Ielja Strik,1973,90,83.7,Netherlands,127.5,-132.5,-132.5,127.5,127.5,F,B,Single-ply,Open
5,Marzena Zieba,1981,90,82.6,Poland,85,92.5,-95,92.5,92.5,F,B,Single-ply,Open
1,Ganna Ganenko,1975,90+,97.4,Ukraine,130,140,147.5,147.5,147.5,F,B,Single-ply,Open
2,Larisa Petrova,1976,90+,106.7,Belarus,125,130,-142.5,130,130,F,B,Single-ply,Open
3,Brenda van der Meulen,1973,90+,93.8,Netherlands,110,117.5,122.5,122.5,122.5,F,B,Single-ply,Open
4,Sari Saksa,1975,90+,108.5,Finland,120,122.5,-125,122.5,122.5,F,B,Single-ply,Open
1,Andrzej Stanaszek,1971,52,50.7,Poland,160,167.5,170,170,170,M,B,Raw,Open
1,Fanil Mukhamatyanov,1972,56,55.5,Russia,-160,-162.5,170,170,170,M,B,Single-ply,Open
2,Krzysztof Owsiany,1964,56,55.1,Poland,-150,150,162.5,162.5,162.5,M,B,Single-ply,Open
3,Andris Rūdulis,1977,56,52.3,Latvia,160,-167.5,-170,160,160,M,B,Single-ply,Open
4,Sergeiy Vatyuk,1962,56,55.8,Ukraine,135,145,-152.5,145,145,M,B,Single-ply,Open
5,Raimo Kaattari,1970,56,55.5,Finland,135,140,-145,140,140,M,B,Single-ply,Open
DQ,Sandor Jancsar,1967,56,55.3,Hungary,-145,-145,-145,,,M,B,Single-ply,Open
1,Tomas Kocjubinski,1981,60,58.8,Poland,165,170,-177.5,170,170,M,B,Single-ply,Open
2,Miroslaw Hermann,1978,60,59.5,Poland,165,170,-175,170,170,M,B,Single-ply,Open
3,Tagy Parnian,1968,60,58.4,Netherlands,-165,165,-177.5,165,165,M,B,Single-ply,Open
4,Claude Sitruk,1950,60,58.9,France,-155,160,-170,160,160,M,B,Single-ply,Open
5,Evgenis Teofimov,1976,60,59.7,Russia,145,152.5,-157.5,152.5,152.5,M,B,Single-ply,Open
6,Volodym Pogrebnyy,1982,60,59.9,Ukraine,142.5,152.5,-157.5,152.5,152.5,M,B,Single-ply,Open
1,Paweł Pracownik,1973,67.5,66.8,Poland,180,187.5,190,190,190,M,B,Single-ply,Open
2,Alphonse Cucuzella,1966,67.5,66.9,France,180,187.5,-190,187.5,187.5,M,B,Single-ply,Open
3,Oleksa Chernyshov,1966,67.5,66.6,Ukraine,-180,-180,180,180,180,M,B,Single-ply,Open
4,Marek Siedelcki,1957,67.5,67.2,Poland,170,177.5,-182.5,177.5,177.5,M,B,Single-ply,Open
5,Erkki Rajala,1962,67.5,67.2,Finland,150,-157.5,157.5,157.5,157.5,M,B,Single-ply,Open
DQ,Vladimirs Morozovs,1968,67.5,65.3,Latvia,-170,-170,-170,,,M,B,Single-ply,Open
1,Jan Wegiera,1965,75,74.9,Poland,202.5,207.5,210,210,210,M,B,Single-ply,Open
2,Vladimir Tchadkov,1972,75,74.6,Russia,200,205,-207.5,205,205,M,B,Single-ply,Open
3,Andreas Zeilinger,1968,75,74,Austria,195,-200,200,200,200,M,B,Single-ply,Open
4,Istvanj Juhasz,1976,75,73.5,Hungary,180,190,-195,190,190,M,B,Single-ply,Open
5,Jens Schlieter,1967,75,74.2,Germany,185,-190,-190,185,185,M,B,Single-ply,Open
6,Sabolsc Könjer,1974,75,74.5,Hungary,-180,180,-195,180,180,M,B,Single-ply,Open
DQ,Joakim Olsson,1976,75,74.8,Sweden,-175,-175,-175,,,M,B,Single-ply,Open
1,Alexey Vorobyev,1969,82.5,81.9,Russia,230,240,-255,240,240,M,B,Single-ply,Open
2,Wieslaw Grabski,1977,82.5,82,Poland,215,222.5,230,230,230,M,B,Single-ply,Open
3,Genädijs Zubriks,1965,82.5,82,Latvia,215,225,-232.5,225,225,M,B,Single-ply,Open
4,Radim Šrámek,1975,82.5,81.2,Czechia,202.5,210,-215,210,210,M,B,Single-ply,Open
5,Semyon Malahov,1978,82.5,80.8,Belarus,195,-205,205,205,205,M,B,Single-ply,Open
6,Helmut Körtge,1964,82.5,82.5,Germany,192.5,197.5,200,200,200,M,B,Single-ply,Open
7,Lubomir Dimov,1975,82.5,82.5,Bulgaria,-195,195,-205,195,195,M,B,Single-ply,Open
8,Paul Smith,1956,82.5,81.7,Netherlands,-185,185,-197.5,185,185,M,B,Single-ply,Open
9,Joakim Carlsson,1968,82.5,81.9,Sweden,-185,185,-200,185,185,M,B,Single-ply,Open
DQ,Didier Compain,1959,82.5,81.4,France,-200,-200,-200,,,M,B,Single-ply,Open
1,Alexand Lekomtzev,1965,90,87,Russia,227.5,-235,-235,227.5,227.5,M,B,Single-ply,Open
2,Alexey Ryzhov,1975,90,87.1,Russia,227.5,-235,-235,227.5,227.5,M,B,Single-ply,Open
3,Erwin Krokkee,1966,90,89.8,Netherlands,-220,220,-230,220,220,M,B,Single-ply,Open
4,Miroslav Hubáček,1967,90,89.6,Czechia,207.5,215,-220,215,215,M,B,Single-ply,Open
5,Kimmo Pakarinen,1963,90,89.6,Finland,205,210,-220,210,210,M,B,Single-ply,Open
6,Peter Lüftinger,1972,90,88.3,Austria,195,-200,200,200,200,M,B,Single-ply,Open
7,Attila Tempos,1974,90,89,Hungary,-190,190,200,200,200,M,B,Single-ply,Open
8,Segeiy Polutin,1975,90,89.6,Ukraine,-200,-200,200,200,200,M,B,Single-ply,Open
DQ,Björn Friedrich,1968,90,87.2,Germany,-180,-180,,,,M,B,Single-ply,Open
DQ,Klaus-Diete Jacob,1961,90,89,Germany,-212.5,-212.5,-212.5,,,M,B,Single-ply,Open
1,Szabolcs Onozo,1970,100,97.7,Hungary,260,265,-270,265,265,M,B,Single-ply,Open
2,Maxim Yalovik,1978,100,99,Belarus,-230,230,242.5,242.5,242.5,M,B,Single-ply,Open
3,Jerzy Furmanek,1952,100,98.3,Poland,240,-245,-245,240,240,M,B,Single-ply,Open
4,Dmitriy Orel,1970,100,90.3,Russia,210,217.5,-220,217.5,217.5,M,B,Single-ply,Open
5,Richard Twycross-Lewis,1976,100,96.6,UK,210,-215,-215,210,210,M,B,Single-ply,Open
6,Uģis Vācietis,1967,100,99.9,Latvia,-210,,210,210,210,M,B,Single-ply,Open
7,Marcel van Nugteren,1968,100,99.3,Netherlands,190,-195,-195,190,190,M,B,Single-ply,Open
DQ,Sven Raskin,1965,100,98.7,Germany,-230,-230,-230,,,M,B,Single-ply,Open
DQ,Vital Ponomarenko,1974,100,99.1,Ukraine,-245,-245,-245,,,M,B,Single-ply,Open
DQ,Hans Dahlström,1966,100,99.3,Sweden,-235,-240,-240,,,M,B,Single-ply,Open
DQ,Achim Kircher,1968,100,99.8,Germany,-210,-210,-215,,,M,B,Single-ply,Open
1,Wieslaw Kruk,1958,110,109.5,Poland,260,265,275,275,275,M,B,Single-ply,Open
2,Vladimir Bardiyan,1972,110,109.7,Belarus,252.5,-257.5,260,260,260,M,B,Single-ply,Open
3,Richard Kobr,1969,110,109.3,Czechia,-252.5,252.5,257.5,257.5,257.5,M,B,Single-ply,Open
4,Dag-Otta Mikalsen,1969,110,109.9,Norway,240,-250,-250,240,240,M,B,Single-ply,Open
5,Matthias Marten,1978,110,102.1,Germany,217.5,225,-230,225,225,M,B,Single-ply,Open
6,John Battie,1967,110,109.2,UK,212.5,-217.5,222.5,222.5,222.5,M,B,Single-ply,Open
7,Marcus Hoen,1966,110,109.3,Germany,220,-227.5,-230,220,220,M,B,Single-ply,Open
8,Gvido Kohs,1965,110,103,Latvia,180,190,-200,190,190,M,B,Single-ply,Open
DQ,Aleksan Kovalchuk,1974,110,109.8,Belarus,-245,-245,-245,,,M,B,Single-ply,Open
1,Eduard Isakov,1973,125,124.6,Russia,-270,270,272.5,272.5,272.5,M,B,Single-ply,Open
2,Tom Wszenderowski,1975,125,122.4,Poland,-270,-270,270,270,270,M,B,Single-ply,Open
3,Yuriy Khuazhev,1970,125,110.6,Russia,-250,250,255,255,255,M,B,Single-ply,Open
4,Frencel Kastaneer,1971,125,110.7,Netherlands,245,-250,-252.5,245,245,M,B,Single-ply,Open
5,Ove Lehto,1972,125,123.4,Finland,-245,245,-247.5,245,245,M,B,Single-ply,Open
6,Tibor Boros,1974,125,124.1,Hungary,-230,230,237.5,237.5,237.5,M,B,Single-ply,Open
7,Andrejs Svincovs,1977,125,120.8,Latvia,210,225,-235,225,225,M,B,Single-ply,Open
8,Zbyněk Krejča,1974,125,111.2,Czechia,207.5,215,-235,215,215,M,B,Single-ply,Open
9,Michal Ludek,1969,125,114.3,Czechia,-200,-200,202.5,202.5,202.5,M,B,Single-ply,Open
10,Anton Speth,1955,125,119.5,Germany,190,200,-202.5,200,200,M,B,Single-ply,Open
DQ,Ljubiša Šaula,1969,125,121.4,Slovenia,-220,-220,-240,,,M,B,Single-ply,Open
DQ,Johan Vikberg,1975,125,124.3,Sweden,-255,-255,-255,,,M,B,Single-ply,Open
1,Ulf Wiklund,1964,125+,158,Sweden,-275,275,277.5,277.5,277.5,M,B,Single-ply,Open
2,Rif Gadiev,1964,125+,151,Russia,265,272.5,275,275,275,M,B,Single-ply,Open
3,Niels Stærkjær,1966,125+,157,Denmark,265,275,-277.5,275,275,M,B,Single-ply,Open
4,Serguey Popov,1975,125+,150.1,Russia,272.5,-275,-277.5,272.5,272.5,M,B,Single-ply,Open
5,Oleg Gusev,1955,125+,129.1,Belarus,255,-262.5,-272.5,255,255,M,B,Single-ply,Open
6,Ivan Mritz,1964,125+,129.8,Slovakia,225,240,242.5,242.5,242.5,M,B,Single-ply,Open
7,Jiri Havdra,1974,125+,126.6,Czechia,215,225,230,230,230,M,B,Single-ply,Open
8,Simon Bukowski,1972,125+,127.7,Germany,-230,230,-240,230,230,M,B,Single-ply,Open
