Place,Sex,Equipment,Event,Name,Age,Division,BodyweightKg,WeightClassKg,Squat1Kg,Squat2Kg,Squat3Kg,Best3SquatKg,Bench1Kg,Bench2Kg,Bench3Kg,Best3BenchKg,Deadlift1Kg,Deadlift2Kg,Deadlift3Kg,Best3DeadliftKg,TotalKg,State,BirthYear
1,F,Raw,SBD,Hannah Dolin,12,FR-Y,40.4,43,25,35,40,40,22.5,25,-30,25,35,45,55,55,120,TX,2000
1,F,Raw,SBD,Molly Zunker,22,FR-Jr,46.3,47,80,85,95,95,47.5,52.5,58,58,120,130,-135.5,130,283,TX,1991
1,F,Raw,SBD,Kelli Lowenberg,39,FR-M1a,43.1,47,62.5,67.5,-72.5,67.5,-35,35,40,40,92.5,102.5,-110,102.5,210,CO,1973
1,F,Raw,SBD,Edith Gevorgian,48,FR-M1b,46.8,47,60,65,-70,65,35,-40,-40,35,80,85,95,95,195,CA,1964
1,F,Raw,SBD,Cheryl Anderson,38,FR-O,47,47,-77.5,77.5,-82.5,77.5,60,-65.5,-67.5,60,130,142.5,145,145,282.5,MN,
1,F,Raw,SBD,Miranda Chambers,13,FR-Y,51.6,52,82.5,87.5,92.5,92.5,42.5,45,50.5,50.5,107.5,117.5,125,125,268,PA,2000
1,F,Raw,SBD,Elizabeth Monk,17,FR-T2,51.1,52,75,82.5,-87.5,82.5,52.5,61,65,65,97.5,103.5,107.5,107.5,255,PA,1996
1,F,Raw,SBD,Kristine Pollizano,20,FR-Jr,51.8,52,100,112.5,117.5,117.5,-62.5,62.5,67.5,67.5,125,135,-137.5,135,320,PA,
2,F,Raw,SBD,Ashlee Alteri,20,FR-Jr,50.7,52,72.5,-80,-80,72.5,47.5,-52.5,52.5,52.5,82.5,105,-112.5,105,230,TX,1993
1,F,Raw,SBD,Susan Elwyn,65,FR-M3b,47.7,52,70,80,82.5,82.5,40,-45,45,45,100,110,-120,110,237.5,FL,1947
1,F,Raw,SBD,Suzanne Hartwig-Gary,44,FR-O,51.8,52,127.5,137.5,142.5,142.5,67.5,72.5,77.5,77.5,130,140,145,145,365,MD,1968
2,F,Raw,SBD,Amanda Padgett,25,FR-O,50.9,52,102.5,122.5,-127.5,122.5,55,67.5,-70,67.5,125,152.5,158,158,348,NC,1987
3,F,Raw,SBD,Marisa Inda,36,FR-O,49.6,52,102.5,115,120,120,67.5,77.5,-82.5,77.5,-145,145,147.5,147.5,345,CA,1976
4,F,Raw,SBD,Kristine Pollizano,20,FR-O,51.8,52,100,112.5,117.5,117.5,-62.5,62.5,67.5,67.5,125,135,-137.5,135,320,PA,
5,F,Raw,SBD,Mune van Luen,36,FR-O,50.5,52,112.5,120,-122.5,120,52.5,55,-57.5,55,110,115,117.5,117.5,292.5,CA,1976
6,F,Raw,SBD,Shalona Connolly,29,FR-O,51.4,52,-92.5,95,102.5,102.5,62.5,67.5,70,70,110,115,120,120,292.5,SC,1984
7,F,Raw,SBD,Lisa Guggisberg,32,FR-O,50.6,52,-92.5,-95,95,95,47.5,50,-52.5,50,120,127.5,-132.5,127.5,272.5,FL,1980
8,F,Raw,SBD,Katia Poreretta,39,FR-O,49.2,52,-80,80,87.5,87.5,57.5,60,-65,60,102.5,110,115,115,262.5,NY,1974
9,F,Raw,SBD,Susan Elwyn,65,FR-O,47.7,52,70,80,82.5,82.5,40,-45,45,45,100,110,-120,110,237.5,FL,1947
1,F,Raw,SBD,Kelly Lin,20,FR-Jr,55.6,57,110,-122.5,122.5,122.5,-70,72.5,75,75,125,135,142.5,142.5,340,CA,1992
2,F,Raw,SBD,Laura McGuill,22,FR-Jr,56.1,57,102.5,112.5,122.5,122.5,52.5,57.5,60,60,122.5,140,-160,140,322.5,TX,1991
3,F,Raw,SBD,Heather Hoff,23,FR-Jr,54.6,57,92.5,95,105,105,47.5,52.5,-55,52.5,112.5,122.5,130,130,287.5,MD,1989
4,F,Raw,SBD,Kristina Malinowski,22,FR-Jr,54.8,57,47.5,57.5,-67.5,57.5,32.5,37.5,40,40,75,82.5,-87.5,82.5,180,NJ,1991
1,F,Raw,SBD,Cathy Mele,47,FR-M1b,56.3,57,60,65,-70,65,42.5,45,50,50,90,105,117.5,117.5,232.5,GA,1966
2,F,Raw,SBD,Denis Jaffe,47,FR-M1b,55.2,57,52.5,-55,-60,52.5,42.5,45,-47.5,45,80,92.5,-100,92.5,190,OH,
1,F,Raw,SBD,Lynne Homan,50,FR-M2a,56.3,57,85,92.5,-107.5,92.5,70,80,-82.5,80,127.5,140,147.5,147.5,320,TX,1962
1,F,Raw,SBD,Pamela Bartz,26,FR-O,55.4,57,122.5,-130,130,130,65,70,-72.5,70,125,132.5,152.5,152.5,352.5,OH,1987
2,F,Raw,SBD,Kristi Trussell,29,FR-O,56.6,57,117.5,127.5,-132.5,127.5,72.5,77.5,-82.5,77.5,127.5,140,147.5,147.5,352.5,MN,1983
3,F,Raw,SBD,Laura McGuill,22,FR-O,56.1,57,102.5,112.5,122.5,122.5,52.5,57.5,60,60,122.5,140,-160,140,322.5,TX,1991
4,F,Raw,SBD,Lynne Homan,50,FR-O,56.3,57,85,92.5,-107.5,92.5,70,80,-82.5,80,127.5,140,147.5,147.5,320,TX,1962
5,F,Raw,SBD,Alyssa Haveson,25,FR-O,55.9,57,100,107.5,-115,107.5,52.5,57.5,-62.5,57.5,132.5,147.5,150,150,315,PA,1988
6,F,Raw,SBD,Karen Backenstose,36,FR-O,54.7,57,92.5,100,102.5,102.5,52.5,57.5,60,60,107.5,-127.5,127.5,127.5,290,PA,1976
7,F,Raw,SBD,Melissa Hunt,27,FR-O,54.4,57,90,95,-100,95,55,60,62.5,62.5,110,117.5,130,130,287.5,IN,
8,F,Raw,SBD,Leigh Thierfelder,30,FR-O,57,57,62.5,75,82.5,82.5,60,72.5,-77.5,72.5,105,120,125,125,280,PA,1982
9,F,Raw,SBD,Roxanne Kirstner,37,FR-O,56.6,57,77.5,85,87.5,87.5,52.5,57.5,60,60,97.5,-112.5,-112.5,97.5,245,PA,1976
1,F,Raw,SBD,Kelly Hennigan,15,FR-T1,58,63,72.5,77.5,82.5,82.5,42.5,45,47.5,47.5,82.5,92.5,100,100,230,PA,1997
1,F,Raw,SBD,Elena Astello,19,FR-T3,61.6,63,82.5,92.5,-102.5,92.5,37.5,-42.5,45,45,102.5,122.5,132.5,132.5,270,TX,1993
2,F,Raw,SBD,Pamela Cresci,19,FR-T3,58.2,63,72.5,77.5,82.5,82.5,45,47.5,-50,47.5,117.5,130,-140,130,260,FL,1993
3,F,Raw,SBD,Chelsy Gant,19,FR-T3,59.9,63,70,-75,-75,70,42.5,45,47.5,47.5,102.5,110,120,120,237.5,PA,
1,F,Raw,SBD,Victoria Liang,20,FR-Jr,61.4,63,107.5,118.5,-122.5,118.5,67.5,72.5,77.5,77.5,150,-157.5,157.5,157.5,353.5,OH,1993
2,F,Raw,SBD,Stephanie Renfro,23,FR-Jr,61.6,63,110,-115,-115,110,65,-67.5,70,70,160,167.5,172.5,172.5,352.5,WA,1990
3,F,Raw,SBD,Ewa Januszkiewicz,21,FR-Jr,62.1,63,85,-92.5,-92.5,85,50,-55,-55,50,120,132.5,-140,132.5,267.5,NJ,1991
4,F,Raw,SBD,Emily Gaines,23,FR-Jr,61.1,63,75,85,92.5,92.5,47.5,52.5,57.5,57.5,92.5,105,112.5,112.5,262.5,GA,1990
5,F,Raw,SBD,Melanie Merryman,21,FR-Jr,59.7,63,65,75,-80,75,-47.5,50,52.5,52.5,100,110,115,115,242.5,MD,1991
1,F,Raw,SBD,Elena Astello,19,FR-C,61.6,63,82.5,92.5,-102.5,92.5,37.5,-42.5,45,45,102.5,122.5,132.5,132.5,270,TX,1993
1,F,Raw,SBD,Jennifer Thompson #1,40,FR-M1a,61.4,63,130,145,-150,145,125,135,-138.5,135,160,195,-205,195,475,NC,1973
1,F,Raw,SBD,Judy Drenth,54,FR-M2a,58.2,63,82.5,90,95,95,57.5,-62.5,62.5,62.5,120,127.5,-132.5,127.5,285,MN,
2,F,Raw,SBD,Joanne Craig,52,FR-M2a,61.3,63,-97.5,97.5,107.5,107.5,45,50,-52.5,50,110,117.5,-122.5,117.5,275,PA,1961
3,F,Raw,SBD,Allison LeCompte,53,FR-M2a,61.4,63,-77.5,80,85,85,57.5,62.5,-65,62.5,100,110,112.5,112.5,260,TX,1960
1,F,Raw,SBD,Cathleen Marksteiner,55,FR-M2b,61.9,63,102.5,110,-115,110,67.5,70,72.5,72.5,105,117.5,-130,117.5,300,OH,1958
2,F,Raw,SBD,Annemarie Kemmerer,59,FR-M2b,60.7,63,82.5,87.5,-92.5,87.5,57.5,60,,60,125,130,135,135,282.5,PA,1953
3,F,Raw,SBD,Bernie Tatulinski,55,FR-M2b,59,63,100,102.5,-105,102.5,50,55,-57.5,55,100,105,112.5,112.5,270,OH,
1,F,Raw,SBD,Helen White,68,FR-M3b,59.4,63,77.5,82.5,-85,82.5,55,57.5,-60,57.5,92.5,100,110,110,250,NJ,1945
1,F,Raw,SBD,Jennifer Thompson #1,40,FR-O,61.4,63,130,145,-150,145,125,135,-138.5,135,160,195,-205,195,475,NC,1973
2,F,Raw,SBD,Meghan Pellatt,28,FR-O,61.5,63,120,127.5,132.5,132.5,70,75,-80,75,-150,165,172.5,172.5,380,FL,1984
3,F,Raw,SBD,Cristina Escalante,26,FR-O,61.7,63,115,122.5,125,125,77.5,-80,,77.5,142.5,147.5,152.5,152.5,355,FL,1986
4,F,Raw,SBD,Laurie Goden,31,FR-O,62.6,63,-92.5,92.5,97.5,97.5,67.5,72.5,77.5,77.5,115,125,-135,125,300,OH,1981
5,F,Raw,SBD,Crystal Lind,34,FR-O,60.9,63,92.5,107.5,-112.5,107.5,57.5,-65,-65,57.5,117.5,122.5,-132.5,122.5,287.5,WI,
6,F,Raw,SBD,Heather Melton,23,FR-O,60,63,102.5,-110,-110,102.5,52.5,57.5,60,60,122.5,-130,-130,122.5,285,GA,1989
7,F,Raw,SBD,Joanne Craig,52,FR-O,61.3,63,-97.5,97.5,107.5,107.5,45,50,-52.5,50,110,117.5,-122.5,117.5,275,PA,1961
8,F,Raw,SBD,Shelly Toth,25,FR-O,61.5,63,87.5,92.5,100,100,47.5,52.5,57.5,57.5,102.5,110,117.5,117.5,275,GA,
9,F,Raw,SBD,Susan Kwansy,36,FR-O,59.9,63,90,95,-100,95,45,47.5,-50,47.5,115,-122.5,-122.5,115,257.5,KY,1976
10,F,Raw,SBD,Jessica Doyle,,FR-O,60.2,63,77.5,85,-90,85,42.5,47.5,-50,47.5,110,125,-137.5,125,257.5,TX,1996
11,F,Raw,SBD,Helen White,68,FR-O,59.4,63,77.5,82.5,-85,82.5,55,57.5,-60,57.5,92.5,100,110,110,250,NJ,1945
12,F,Raw,SBD,Rachel Tumin,26,FR-O,59.9,63,75,80,85,85,40,-45,-45,40,100,-105,-105,100,225,OH,1987
G,F,Raw,SBD,Elizabeth Anderson,28,FR-G,69.2,72,57.5,65,-67.5,65,35,40,-45,40,90,-97.5,97.5,97.5,202.5,Canada,
1,F,Raw,SBD,Sarah Hunt,12,FR-Y,69.2,72,75,-85,85,85,37.5,45,47.5,47.5,85,100,-105,100,232.5,PA,2001
1,F,Raw,SBD,Lydia Mele,15,FR-T1,70.3,72,95,105,-110,105,45,50,55,55,107.5,117.5,125,125,285,GA,1998
2,F,Raw,SBD,Caitlyn Gant,15,FR-T1,67.8,72,82.5,87.5,95,95,45,47.5,50,50,115,120,130,130,275,PA,1997
1,F,Raw,SBD,Ella Lowenberg,17,FR-T2,69.5,72,85,-90,90,90,47.5,52.5,-55,52.5,102.5,107.5,112.5,112.5,255,,1996
1,F,Raw,SBD,Maria Young,19,FR-T3,63.5,72,82.5,85,95,95,37.5,42.5,-45,42.5,105,117.5,122.5,122.5,260,SD,1993
2,F,Raw,SBD,Faith Knight,18,FR-T3,67.1,72,70,77.5,-87.5,77.5,42.5,-47.5,-47.5,42.5,95,102.5,112.5,112.5,232.5,PA,1995
1,F,Raw,SBD,Chelsea Savit,22,FR-Jr,70.5,72,115,127.5,-135,127.5,75,82.5,-88,82.5,142.5,160,173,173,383,NY,1991
2,F,Raw,SBD,Natalie Hanson,23,FR-Jr,71.5,72,122.5,130,-136,130,80,-85,-85,80,142.5,-152.5,152.5,152.5,362.5,AK,1990
3,F,Raw,SBD,Haley Kavelak,22,FR-Jr,69,72,102.5,117.5,-127.5,117.5,57.5,-65,65,65,142.5,157.5,172.5,172.5,355,DE,1990
4,F,Raw,SBD,Lindsay McGuire #5,23,FR-Jr,65.5,72,-107.5,-107.5,107.5,107.5,65,-72.5,-72.5,65,145,160,-167.5,160,332.5,IL,1989
5,F,Raw,SBD,Emily Gray,22,FR-Jr,70.2,72,102.5,105,115,115,70,72.5,-77.5,72.5,127.5,137.5,-142.5,137.5,325,VA,1990
6,F,Raw,SBD,Rachel Ellering,20,FR-Jr,69.2,72,110,120,127.5,127.5,52.5,62.5,-65,62.5,120,130,-137.5,130,320,MN,
7,F,Raw,SBD,Christina Pollick,20,FR-Jr,64.6,72,102.5,110,-117.5,110,60,65,-70,65,125,132.5,137.5,137.5,312.5,PA,1993
8,F,Raw,SBD,Whitney Hawkins,23,FR-Jr,67.7,72,102.5,107.5,110,110,55,60,-62.5,60,125,137.5,-145,137.5,307.5,PA,1990
9,F,Raw,SBD,Jenny Nocas,20,FR-Jr,71,72,100,102.5,-105,102.5,67.5,-70,70,70,122.5,125,132.5,132.5,305,CO,1993
1,F,Raw,SBD,Haley Kavelak,22,FR-C,69,72,102.5,117.5,-127.5,117.5,57.5,-65,65,65,142.5,157.5,172.5,172.5,355,DE,1990
2,F,Raw,SBD,Rachel Ellering,20,FR-C,69.2,72,110,120,127.5,127.5,52.5,62.5,-65,62.5,120,130,-137.5,130,320,MN,
1,F,Raw,SBD,Sheryl Condon,40,FR-M1a,70.9,72,125,132.5,-140,132.5,67.5,72.5,75,75,150,157.5,162.5,162.5,370,CA,1972
2,F,Raw,SBD,Jill Joiner-Wong,44,FR-M1a,66.8,72,127.5,-137.5,137.5,137.5,75,-80,80,80,135,150,-160,150,367.5,WA,1969
1,F,Raw,SBD,Mary Ann Wieckowski,49,FR-M1b,71.1,72,90,97.5,102.5,102.5,70,76,-80,76,112.5,120,127.5,127.5,306,PA,
1,F,Raw,SBD,Lisa McAdams,54,FR-M2a,69.3,72,100,-107.5,-107.5,100,-52.5,52.5,-57.5,52.5,137.5,-150,-150,137.5,290,TX,1958
1,F,Raw,SBD,Lynne Renshaw,56,FR-M2b,67.5,72,82.5,90,92.5,92.5,70,77.5,-80,77.5,110,127.5,135,135,305,PA,1956
1,F,Raw,SBD,Savannah Gentry,29,FR-MO,70.2,72,-130,130,-140,130,70,75,-82.5,75,145,152.5,-160,152.5,357.5,FL,1983
1,F,Raw,SBD,Kimberly Walford,34,FR-O,63.6,72,145,152.5,-157.5,152.5,92.5,-100,-100,92.5,205,222.5,230,230,475,CT,1978
2,F,Raw,SBD,Chelsea Savit,22,FR-O,70.5,72,115,127.5,-135,127.5,75,82.5,-88,82.5,142.5,160,173,173,383,NY,1991
3,F,Raw,SBD,Sheryl Condon,40,FR-O,70.9,72,125,132.5,-140,132.5,67.5,72.5,75,75,150,157.5,162.5,162.5,370,CA,1972
4,F,Raw,SBD,Jill Joiner-Wong,44,FR-O,66.8,72,127.5,-137.5,137.5,137.5,75,-80,80,80,135,150,-160,150,367.5,WA,1969
6,F,Raw,SBD,Natalie Hanson,23,FR-O,71.5,72,122.5,130,-136,130,80,-85,-85,80,142.5,-152.5,152.5,152.5,362.5,AK,1990
5,F,Raw,SBD,Amy Welcome,26,FR-O,68.6,72,117.5,125,127.5,127.5,62.5,65,67.5,67.5,155,167.5,-175,167.5,362.5,PA,1986
7,F,Raw,SBD,Savannah Gentry,29,FR-O,70.2,72,-130,130,-140,130,70,75,-82.5,75,145,152.5,-160,152.5,357.5,FL,1983
8,F,Raw,SBD,Elisabeth Lis Sanders,33,FR-O,70.8,72,112.5,122.5,132.5,132.5,57.5,65,-72.5,65,132.5,150,160,160,357.5,GA,
9,F,Raw,SBD,Haley Kavelak,22,FR-O,69,72,102.5,117.5,-127.5,117.5,57.5,-65,65,65,142.5,157.5,172.5,172.5,355,DE,1990
10,F,Raw,SBD,Kehaulani Richardson,31,FR-O,70.8,72,110,117.5,122.5,122.5,60,-67.5,67.5,67.5,140,152.5,165,165,355,HI,1981
11,F,Raw,SBD,Jennifer Kroken,39,FR-O,70.5,72,120,132.5,137.5,137.5,67.5,70,-72.5,70,137.5,-142.5,142.5,142.5,350,TX,1974
12,F,Raw,SBD,Jennifer Varner,30,FR-O,66.3,72,-112.5,-122.5,122.5,122.5,62.5,67.5,-70,67.5,142.5,150,-157.5,150,340,MI,1983
13,F,Raw,SBD,Vanessa Gale,25,FR-O,66.7,72,115,122.5,130,130,55,60,-62.5,60,135,145,150,150,340,GA,1988
14,F,Raw,SBD,Lindsay McGuire #5,23,FR-O,65.5,72,-107.5,-107.5,107.5,107.5,65,-72.5,-72.5,65,145,160,-167.5,160,332.5,IL,1989
15,F,Raw,SBD,Cathy Cox,38,FR-O,71.9,72,92.5,-100,100,100,50,55,60,60,142.5,150,-160,150,310,FL,1975
16,F,Raw,SBD,Lynne Renshaw,56,FR-O,67.5,72,82.5,90,92.5,92.5,70,77.5,-80,77.5,110,127.5,135,135,305,PA,1956
17,F,Raw,SBD,Lydia Mele,15,FR-O,70.3,72,95,105,-110,105,45,50,55,55,107.5,117.5,125,125,285,GA,1998
18,F,Raw,SBD,Kimberly Harrell,31,FR-O,64.3,72,75,77.5,85,85,45,52.5,57.5,57.5,100,110,120,120,262.5,OH,1981
19,F,Raw,SBD,Anne Hayward,27,FR-O,71.8,72,90,97.5,102.5,102.5,42.5,47.5,-50,47.5,100,110,-120,110,260,PA,1985
20,F,Raw,SBD,Brandi Eberly,37,FR-O,70.4,72,72.5,80,-85,80,45,50,-55,50,92.5,105,112.5,112.5,242.5,PA,1976
DQ,F,Raw,SBD,Kimberly Price,30,FR-O,72,72,-132.5,-132.5,-132.5,,62.5,67.5,75,75,142.5,-162.5,162.5,162.5,,OH,
1,F,Raw,SBD,Tessa Urbank,19,FR-T3,74.4,84,95,107.5,112.5,112.5,45,52.5,-57.5,52.5,142.5,-161,161,161,326,NJ,1993
1,F,Raw,SBD,Mickey Mikelina Belainen,22,FR-Jr,82.7,84,147.5,152.5,-157.5,152.5,85,-87.5,-87.5,85,177.5,193,-200,193,430.5,TX,
2,F,Raw,SBD,Sara Cichorek,23,FR-Jr,76.6,84,117.5,125,130,130,60,65,67.5,67.5,140,147.5,152.5,152.5,350,NY,
3,F,Raw,SBD,Stephaine Mahan,20,FR-Jr,82.4,84,117.5,125,132.5,132.5,57.5,62.5,67.5,67.5,132.5,142.5,150,150,350,GA,
1,F,Raw,SBD,Heidi Ziegle,44,FR-M1a,80.3,84,90,97.5,105,105,62.5,67.5,-72.5,67.5,115,127.5,-137.5,127.5,300,GA,
DQ,F,Raw,SBD,Stephany Wilken,51,FR-M2a,78.6,84,-65,-65,-65,,42.5,-47.5,-47.5,42.5,107.5,110,112.5,112.5,,FL,
1,F,Raw,SBD,Patricia Pat Kroken,66,FR-M3b,81.5,84,-70,75,-82.5,75,35,-37.5,37.5,37.5,95,105,-107.5,105,217.5,NM,
1,F,Raw,SBD,Mickey Mikelina Belainen,22,FR-O,82.7,84,147.5,152.5,-157.5,152.5,85,-87.5,-87.5,85,177.5,193,-200,193,430.5,TX,
2,F,Raw,SBD,Ashley Szczepaniec,29,FR-O,78.4,84,-142.5,-147.5,147.5,147.5,72.5,80,-87.5,80,145,160,170,170,397.5,VA,
3,F,Raw,SBD,Kenya Spears,32,FR-O,76.2,84,112.5,122.5,130,130,62.5,77.5,-85,77.5,162.5,180,185,185,392.5,TX,
4,F,Raw,SBD,Amanda Carroll,33,FR-O,80.1,84,115,122.5,127.5,127.5,60,65,-67.5,65,132.5,142.5,152.5,152.5,345,GA,
5,F,Raw,SBD,Alison Hardy,34,FR-O,75.9,84,-112.5,120,-127.5,120,45,-50,52.5,52.5,130,137.5,-145,137.5,310,IL,
6,F,Raw,SBD,Amber Sheppard,25,FR-O,74.8,84,-120,120,-127.5,120,45,50,55,55,125,-132.5,-132.5,125,300,MS,1988
1,F,Raw,SBD,Kaylee Findley,16,FR-T2,109,84+,120,127.5,132.5,132.5,70,-77.5,77.5,77.5,137.5,150,162.5,162.5,372.5,FL,
1,F,Raw,SBD,Alicia Webb,42,FR-M1a,91.1,84+,167.5,177.5,182.5,182.5,82.5,87.5,90,90,167.5,175,182.5,182.5,455,GA,
2,F,Raw,SBD,Jerriann Doll,44,FR-M1a,98.4,84+,102.5,110,-120,110,82.5,-105,-105,82.5,142.5,160,175,175,367.5,OH,
3,F,Raw,SBD,Rebekah Landbeck,42,FR-M1a,88,84+,105,115,-117.5,115,-50,-52.5,52.5,52.5,122.5,137.5,-152.5,137.5,305,FL,
4,F,Raw,SBD,Carmen Hays,44,FR-M1a,92.4,84+,75,85,-95,85,50,52.5,57.5,57.5,122.5,130,135,135,277.5,CO,
1,F,Raw,SBD,Tina Robinson,46,FR-M1b,85.5,84+,137.5,152.5,,152.5,102.5,110,115,115,160,170,-182.5,170,437.5,GA,
2,F,Raw,SBD,Sherry Weaver,49,FR-M1b,107.2,84+,-62.5,62.5,70,70,60,67.5,70,70,87.5,95,102.5,102.5,242.5,PA,
1,F,Raw,SBD,Sue Hallen,56,FR-M2b,106.3,84+,125,137.5,-152.5,137.5,80,92.5,-102.5,92.5,115,137.5,145,145,375,IL,
1,F,Raw,SBD,Bonica Brown,24,FR-O,108.4,84+,162.5,172.5,187.5,187.5,95,105,-120.5,105,172.5,197.5,213,213,505.5,NE,
2,F,Raw,SBD,Alicia Webb,42,FR-O,91.1,84+,167.5,177.5,182.5,182.5,82.5,87.5,90,90,167.5,175,182.5,182.5,455,GA,
3,F,Raw,SBD,Melissa Copeland,35,FR-O,109.6,84+,170,182.5,-192.5,182.5,85,92.5,-97.5,92.5,177.5,-187.5,-187.5,177.5,452.5,MD,
4,F,Raw,SBD,Heather Hall,37,FR-O,117,84+,150,165,172.5,172.5,95,102.5,-107.5,102.5,155,170,-177.5,170,445,GA,
5,F,Raw,SBD,Tina Robinson,46,FR-O,85.5,84+,137.5,152.5,,152.5,102.5,110,115,115,160,170,-182.5,170,437.5,GA,
6,F,Raw,SBD,Marcia Darbouze,24,FR-O,88.7,84+,140,150,-155,150,75,80,-85,80,185,192.5,-205,192.5,422.5,FL,
7,F,Raw,SBD,Courtney Lynch,27,FR-O,113.8,84+,140,-152.5,157.5,157.5,65,72.5,-75,72.5,140,150,160,160,390,PA,
8,F,Raw,SBD,Sue Hallen,56,FR-O,106.3,84+,125,137.5,-152.5,137.5,80,92.5,-102.5,92.5,115,137.5,145,145,375,IL,
9,F,Raw,SBD,Jerriann Doll,44,FR-O,98.4,84+,102.5,110,-120,110,82.5,-105,-105,82.5,142.5,160,175,175,367.5,OH,
10,F,Raw,SBD,Destiny Hope Siquenza,28,FR-O,102.5,84+,-110,110,-120,110,55,62.5,-67.5,62.5,135,145,160,160,332.5,TX,
11,F,Raw,SBD,Amanda Jonnala,37,FR-O,108.8,84+,-60,65,-82.5,65,57.5,65,70,70,102.5,117.5,137.5,137.5,272.5,GA,
12,F,Raw,SBD,Sherry Weaver,49,FR-O,107.2,84+,-62.5,62.5,70,70,60,67.5,70,70,87.5,95,102.5,102.5,242.5,PA,
1,M,Raw,SBD,Larry Moody,15,MR-T1,51.7,53,60,72.5,82.5,82.5,-52.5,52.5,65,65,90,102.5,112.5,112.5,260,GA,1997
1,M,Raw,SBD,Tyler Wells,17,MR-T2,58.1,59,102.5,-112.5,112.5,112.5,67.5,75,82.5,82.5,117.5,132.5,145,145,340,GA,
2,M,Raw,SBD,Cason Smith,17,MR-T2,54.2,59,62.5,70,-77.5,70,50,55,-60,55,80,82.5,102.5,102.5,227.5,AL,1996
1,M,Raw,SBD,Paul Cataldi,18,MR-T3,58.7,59,137.5,142.5,-154,142.5,92.5,-95,,92.5,172.5,182.5,-192.5,182.5,417.5,PA,1995
2,M,Raw,SBD,Matthew Jacobson,19,MR-T3,57.8,59,92.5,-105,110,110,57.5,65,-70,65,125,142.5,147.5,147.5,322.5,FL,1994
1,M,Raw,SBD,Carlos Buenfil Jr,23,MR-Jr,58.6,59,-145,150,-160,150,95,100,-105,100,182.5,195,-210,195,445,TX,
1,M,Raw,SBD,Paritosh Bhatnagar,21,MR-C,55,59,70,82.5,-95,82.5,60,67.5,-75,67.5,105,115,130,130,280,TX,1992
1,M,Raw,SBD,Eric Kupperstein,47,MR-M1b,58.6,59,170,185,-195,185,92.5,100,105,105,215,237.5,255,255,545,MA,1966
1,M,Raw,SBD,Eric Kupperstein,47,MR-O,58.6,59,170,185,-195,185,92.5,100,105,105,215,237.5,255,255,545,MA,1966
2,M,Raw,SBD,Carlos Buenfil,23,MR-O,58.6,59,-145,150,-160,150,95,100,-105,100,182.5,195,-210,195,445,TX,1990
3,M,Raw,SBD,Tyler Wells,17,MR-O,58.1,59,102.5,-112.5,112.5,112.5,67.5,75,82.5,82.5,117.5,132.5,145,145,340,GA,
4,M,Raw,SBD,Larry Moody,15,MR-O,51.7,59,60,72.5,82.5,82.5,-52.5,52.5,65,65,90,102.5,112.5,112.5,260,GA,1997
1,M,Raw,SBD,Kyle Houser,14,MR-T1,62.5,66,140,-145,150,150,110,117.5,-125,117.5,160,165,170,170,437.5,GA,1998
2,M,Raw,SBD,Nate Salemno,15,MR-T1,64.4,66,117.5,125,-132.5,125,80,85,-87.5,85,132.5,142.5,150,150,360,PA,1998
3,M,Raw,SBD,Thomas Saeden,14,MR-T1,60.5,66,-70,82.5,100,100,70,75,-77.5,75,115,125,-142.5,125,300,VA,
4,M,Raw,SBD,Shon Paul Dukes,14,MR-T1,60.9,66,65,75,-85,75,52.5,65,-72.5,65,102.5,122.5,137.5,137.5,277.5,AL,
1,M,Raw,SBD,Brett Benedix,17,MR-T2,65.5,66,182.5,197.5,-202.5,197.5,87.5,92.5,-97.5,92.5,185,195,205,205,495,FL,
2,M,Raw,SBD,Jacob Keesee,17,MR-T2,64.9,66,150,160,-170,160,-102.5,105,112.5,112.5,175,182.5,192.5,192.5,465,GA,1995
1,M,Raw,SBD,Aaron Stroud,19,MR-T3,65.1,66,170,177.5,-182.5,177.5,122.5,-127.5,127.5,127.5,197.5,-200,200,200,505,NC,1994
2,M,Raw,SBD,Jesus Flores-Correa,18,MR-T3,61.9,66,165,175,-180,175,70,77.5,-80,77.5,185,195,205,205,457.5,ID,1994
3,M,Raw,SBD,Jake Benedix,19,MR-T3,63.2,66,142.5,150,-157.5,150,95,100,-102.5,100,152.5,165,172.5,172.5,422.5,FL,1994
1,M,Raw,SBD,Courtney Spencer,22,MR-Jr,64.5,66,145,152.5,157.5,157.5,-90,95,97.5,97.5,160,180,190,190,445,NJ,
2,M,Raw,SBD,Benny Lee,21,MR-Jr,65.2,66,125,-127.5,127.5,127.5,120,122.5,-127.5,122.5,182.5,187.5,192.5,192.5,442.5,TX,
DQ,M,Raw,SBD,Nicholas Womble,20,MR-Jr,64.6,66,-175,-175,-175,,102.5,107.5,-112.5,107.5,175,182.5,187.5,187.5,,FL,1993
1,M,Raw,SBD,Courtney Spencer,22,MR-C,64.5,66,145,152.5,157.5,157.5,-90,95,97.5,97.5,160,180,190,190,445,NJ,
DQ,M,Raw,SBD,Mike Lim,28,MR-C,65.9,66,-165,-180,-180,,125,130,132.5,132.5,205,210,-215,210,,GA,1984
1,M,Raw,SBD,Jeff Phillips #1,47,MR-M1b,64.3,66,145,162.5,175,175,105,115,,115,182.5,227.5,235,235,525,AR,1965
1,M,Raw,SBD,Bradford Olson,51,MR-M2a,65.3,66,150,170,-175,170,125,-135,-135,125,185,205,215,215,510,OH,1962
2,M,Raw,SBD,Chester Horne,51,MR-M2a,64.8,66,142.5,145,150,150,90,102.5,-115,102.5,187.5,202.5,-212.5,202.5,455,MS,1961
1,M,Raw,SBD,Benny Lee,21,MR-MO,65.2,66,125,-127.5,127.5,127.5,120,122.5,-127.5,122.5,182.5,187.5,192.5,192.5,442.5,TX,
1,M,Raw,SBD,Shawn Frasquillo,27,MR-O,65.3,66,182.5,195,-202.5,195,140,150,-155,150,215,227.5,237.5,237.5,582.5,TX,1986
2,M,Raw,SBD,Andrew Watson,25,MR-O,65.2,66,-200,200,205,205,122.5,127.5,-130,127.5,230,242.5,-250,242.5,575,PA,1988
3,M,Raw,SBD,Jason Haines,32,MR-O,65.5,66,175,182.5,-187.5,182.5,120,125,-127.5,125,215,-227.5,227.5,227.5,535,FL,1981
4,M,Raw,SBD,Jeff Phillips #1,47,MR-O,64.3,66,145,162.5,175,175,105,115,,115,182.5,227.5,235,235,525,AR,1965
5,M,Raw,SBD,Tyler Mohammed,24,MR-O,62.8,66,182.5,192.5,-207.5,192.5,102.5,-107.5,,102.5,205,-227.5,-227.5,205,500,FL,1988
6,M,Raw,SBD,Jacob Keesee,17,MR-O,64.9,66,150,160,-170,160,-102.5,105,112.5,112.5,175,182.5,192.5,192.5,465,GA,1995
7,M,Raw,SBD,Benny Lee,21,MR-O,65.2,66,125,-127.5,127.5,127.5,120,122.5,-127.5,122.5,182.5,187.5,192.5,192.5,442.5,TX,
DQ,M,Raw,SBD,Mike Lim,28,MR-O,65.9,66,-165,-180,-180,,125,130,132.5,132.5,205,210,-215,210,,GA,1984
1,M,Raw,SBD,Nathan Kimball,17,MR-T2,71.4,74,185,190,192.5,192.5,115,117.5,120,120,187.5,202.5,-210,202.5,515,OK,1996
2,M,Raw,SBD,Garrett Poiry,17,MR-T2,69,74,150,-172.5,-172.5,150,112.5,-125,-125,112.5,182.5,200,-202.5,200,462.5,OH,1995
3,M,Raw,SBD,Devan Cox,16,MR-T2,71.2,74,95,127.5,-137.5,127.5,70,-92.5,-92.5,70,120,162.5,170,170,367.5,NC,
1,M,Raw,SBD,Eric Dillon Blalock,19,MR-T3,73.2,74,167.5,170,-190,170,120,130,-135,130,207.5,217.5,227.5,227.5,527.5,AL,
2,M,Raw,SBD,Cody Houser,18,MR-T3,72.1,74,172.5,182.5,-190,182.5,130,135,-140,135,192.5,202.5,207.5,207.5,525,GA,1995
1,M,Raw,SBD,Sam Derynck,21,MR-Jr,73.8,74,185,195,205,205,130,135,-140,135,230,242.5,-255,242.5,582.5,MN,
2,M,Raw,SBD,Nial Luu,22,MR-Jr,72.2,74,175,-177.5,-187.5,175,125,-130,-130,125,-215,225,227.5,227.5,527.5,MA,1991
3,M,Raw,SBD,Hector Garcia,23,MR-Jr,72.8,74,162.5,172.5,182.5,182.5,127.5,-135,135,135,192.5,207.5,-222.5,207.5,525,TX,1989
4,M,Raw,SBD,Joe Johnson,20,MR-Jr,73.2,74,145,160,-165,160,102.5,110,-112.5,110,227.5,-250,253,253,523,FL,
5,M,Raw,SBD,Rene Del Angel,23,MR-Jr,73.4,74,187.5,-197.5,-197.5,187.5,127.5,135,-140,135,-197.5,-197.5,197.5,197.5,520,TX,1989
6,M,Raw,SBD,Jospeh Cavanaugh,22,MR-Jr,73.1,74,147.5,162.5,170,170,100,110,115,115,197.5,205,215,215,500,PA,
7,M,Raw,SBD,Chris Jacobson,21,MR-Jr,73.5,74,-185,185,-205,185,102.5,-107.5,-107.5,102.5,192.5,210,-235,210,497.5,FL,
8,M,Raw,SBD,Nick Phillips,21,MR-Jr,73.2,74,147.5,157.5,165,165,105,112.5,120,120,182.5,195,202.5,202.5,487.5,PA,1992
9,M,Raw,SBD,Stefan Marty,20,MR-Jr,73.2,74,160,167.5,-172.5,167.5,107.5,115,-122.5,115,172.5,182.5,187.5,187.5,470,AK,1992
10,M,Raw,SBD,Andrew Pace,21,MR-Jr,71,74,115,135,137.5,137.5,90,97.5,102.5,102.5,162.5,182.5,-195,182.5,422.5,OH,1992
1,M,Raw,SBD,Jospeh Cavanaugh,22,MR-C,73.1,74,147.5,162.5,170,170,100,110,115,115,197.5,205,215,215,500,PA,
2,M,Raw,SBD,Nick Phillips,21,MR-C,73.2,74,147.5,157.5,165,165,105,112.5,120,120,182.5,195,202.5,202.5,487.5,PA,1992
3,M,Raw,SBD,Andrew Pace,21,MR-C,71,74,115,135,137.5,137.5,90,97.5,102.5,102.5,162.5,182.5,-195,182.5,422.5,OH,1992
1,M,Raw,SBD,Brian Morrison,40,MR-M1a,72.4,74,110,125,140,140,107.5,120,-122.5,120,145,160,167.5,167.5,427.5,FL,1973
2,M,Raw,SBD,Olun Riley,44,MR-M1a,72.2,74,105,112.5,122.5,122.5,90,95,-102.5,95,147.5,157.5,167.5,167.5,385,CA,1969
1,M,Raw,SBD,Gary Kaiser,53,MR-M2a,73.7,74,-185,-185,185,185,137.5,140,-142.5,140,220,230,,230,555,AZ,1960
1,M,Raw,SBD,Bob Yamasaki,60,MR-M3a,73.3,74,175,190,202.5,202.5,107.5,-115,-115,107.5,210,227.5,237.5,237.5,547.5,CA,
DQ,M,Raw,SBD,C. David Lindley,70,MR-M4a,72.2,74,95,-97.5,-97.5,95,-60,-60,-60,,112.5,117.5,120,120,,TN,
1,M,Raw,SBD,Alex Merritt,22,MR-SO,67.6,74,75,-82.5,-82.5,75,62.5,75,-85,75,102.5,115,125,125,275,GA,1991
1,M,Raw,SBD,Jordan Berke,24,MR-O,73,74,192.5,205,-212.5,205,147.5,157.5,163,163,217.5,240,247.5,247.5,615.5,FL,1989
2,M,Raw,SBD,Tim Lamando,34,MR-O,73.7,74,200,-215,-215,200,115,125,130,130,232.5,250,257.5,257.5,587.5,TX,1979
3,M,Raw,SBD,Scott Myers,29,MR-O,72.6,74,-185,190,197.5,197.5,142.5,-152.5,-152.5,142.5,225,232.5,-240,232.5,572.5,PA,
4,M,Raw,SBD,Brent Kim,27,MR-O,73.1,74,195,202.5,-207.5,202.5,122.5,130,-132.5,130,192.5,202.5,210,210,542.5,TX,1986
5,M,Raw,SBD,Eric Hess,24,MR-O,73.5,74,177.5,190,-197.5,190,132.5,140,-145,140,192.5,202.5,-212.5,202.5,532.5,WI,1989
6,M,Raw,SBD,Rene Del Angel,23,MR-O,73.4,74,187.5,-197.5,-197.5,187.5,127.5,135,-140,135,-197.5,-197.5,197.5,197.5,520,TX,1989
7,M,Raw,SBD,Dmitry Tumin,25,MR-O,71.7,74,170,180,-190,180,92.5,97.5,-100,97.5,205,220,230,230,507.5,OH,1987
8,M,Raw,SBD,Jospeh Cavanaugh,22,MR-O,73.1,74,147.5,162.5,170,170,100,110,115,115,197.5,205,215,215,500,PA,
9,M,Raw,SBD,Brett Hof,26,MR-O,74,74,147.5,160,-170,160,125,-135,-135,125,175,-185,185,185,470,OH,1987
10,M,Raw,SBD,Slade Jones,24,MR-O,72.6,74,137.5,147.5,-155,147.5,95,100,-105,100,195,210,-222.5,210,457.5,NM,1989
11,M,Raw,SBD,Andrew Pace,21,MR-O,71,74,115,135,137.5,137.5,90,97.5,102.5,102.5,162.5,182.5,-195,182.5,422.5,OH,1992
12,M,Raw,SBD,Alex Merritt,22,MR-O,67.6,74,75,-82.5,-82.5,75,62.5,75,-85,75,102.5,115,125,125,275,GA,1991
DQ,M,Raw,SBD,David Edwards,,MR-O,72.9,74,-192.5,-192.5,-192.5,,110,112.5,120,120,220,232.5,-235,232.5,,SC,1980
1,M,Raw,SBD,Anthony McGuill,15,MR-T1,77.5,83,97.5,110,117.5,117.5,62.5,72.5,-87.5,72.5,117.5,127.5,137.5,137.5,327.5,TX,
1,M,Raw,SBD,Matthew Koe,16,MR-T2,81.9,83,175,203.5,207.5,207.5,125,138,-140,138,182.5,230,237.5,237.5,583,NC,1996
2,M,Raw,SBD,Austin Gauldin,17,MR-T2,74.6,83,117.5,140,155,155,122.5,130,-132.5,130,190,205,212.5,212.5,497.5,AL,1995
1,M,Raw,SBD,Joseph Cazoli,19,MR-T3,78.9,83,200,212.5,222.5,222.5,110,120,125,125,217.5,232.5,-235,232.5,580,FL,
2,M,Raw,SBD,Thomas Buckles,19,MR-T3,78.5,83,165,185,195,195,105,-117.5,120,120,210,230,-250,230,545,CT,1994
1,M,Raw,SBD,John Downing,23,MR-Jr,80.9,83,237.5,250,-262.5,250,150,162.5,-165,162.5,250,265,-275,265,677.5,OH,1990
2,M,Raw,SBD,Zachary Archer,20,MR-Jr,80.9,83,220,230,240,240,130,137.5,142.5,142.5,265,272.5,277.5,277.5,660,IN,
3,M,Raw,SBD,William Everhardt,21,MR-Jr,79.7,83,205,207.5,215,215,157.5,162.5,165,165,235,247.5,257.5,257.5,637.5,LA,1991
4,M,Raw,SBD,Jonnie Candito,21,MR-Jr,80.5,83,215,230,-237.5,230,132.5,142.5,-147.5,142.5,237.5,255,-265,255,627.5,OH,1992
5,M,Raw,SBD,Michael Scokowski,23,MR-Jr,81.9,83,205,-215,-215,205,160,165,-170,165,245,257.5,-267.5,257.5,627.5,CT,
6,M,Raw,SBD,Robert Irving,21,MR-Jr,81.9,83,210,-220,-220,210,145,150,-152.5,150,245,252.5,257.5,257.5,617.5,TX,1991
7,M,Raw,SBD,Gregory Phelps,20,MR-Jr,81.6,83,192.5,202.5,207.5,207.5,125,130,132.5,132.5,250,262.5,267.5,267.5,607.5,FL,1993
8,M,Raw,SBD,Michael Soya,22,MR-Jr,81.7,83,177.5,190,200,200,137.5,147.5,-150,147.5,220,237.5,252.5,252.5,600,PA,1990
9,M,Raw,SBD,Andrey Grebenetsky,22,MR-Jr,82.9,83,200,215,222.5,222.5,145,155,157.5,157.5,200,220,,220,600,NY,
10,M,Raw,SBD,Stephen Teeters,22,MR-Jr,81.4,83,187.5,-202.5,-210,187.5,142.5,-150,150,150,237.5,250,260,260,597.5,PA,1990
11,M,Raw,SBD,Joe Sullivan,20,MR-Jr,81.9,83,205,215,-222.5,215,125,132.5,-142.5,132.5,215,230,,230,577.5,OH,1993
11,M,Raw,SBD,Keith Schneider,21,MR-Jr,78.4,83,200,-212.5,-220,200,112.5,120,-127.5,120,242.5,-265,-265,242.5,562.5,OH,1992
12,M,Raw,SBD,Daniel Truesdell,20,MR-Jr,80.2,83,182.5,-185,-195,182.5,125,130,132.5,132.5,-205,205,-217.5,205,520,FL,1993
13,M,Raw,SBD,Evan Byrne,22,MR-Jr,76.4,83,127.5,142.5,152.5,152.5,97.5,105,-110,105,152.5,167.5,-177.5,167.5,425,OH,1990
1,M,Raw,SBD,Robert Irving,21,MR-C,81.9,83,210,-220,-220,210,145,150,-152.5,150,245,252.5,257.5,257.5,617.5,TX,1991
2,M,Raw,SBD,Michael Soya,22,MR-C,81.7,83,177.5,190,200,200,137.5,147.5,-150,147.5,220,237.5,252.5,252.5,600,PA,1990
3,M,Raw,SBD,Stephen Teeters,22,MR-C,81.4,83,187.5,-202.5,-210,187.5,142.5,-150,150,150,237.5,250,260,260,597.5,PA,1990
4,M,Raw,SBD,Keith Schneider,21,MR-C,78.4,83,200,-212.5,-220,200,112.5,120,-127.5,120,242.5,-265,-265,242.5,562.5,OH,1992
1,M,Raw,SBD,Donald Bigham,41,MR-M1a,82.4,83,205,217.5,227.5,227.5,145,152.5,155,155,227.5,232.5,-245,232.5,615,AL,1972
2,M,Raw,SBD,Victor Bayliss,40,MR-M1a,80.5,83,127.5,135,140,140,100,105,110,110,145,147.5,150,150,400,CA,
1,M,Raw,SBD,Laddie Gibson,48,MR-M1b,82.7,83,182.5,205,210,210,167.5,177.5,-180,177.5,227.5,235,252.5,252.5,640,NY,
2,M,Raw,SBD,Donovan Thompson,47,MR-M1b,82.1,83,175,210,-217.5,210,142.5,160,-165.5,160,182.5,230,-245,230,600,NC,1966
1,M,Raw,SBD,Richard Wenner,49,MR-M2a,82.8,83,182.5,197.5,207.5,207.5,137.5,147.5,155,155,230,250,262.5,262.5,625,AZ,
2,M,Raw,SBD,Doug Harney,50,MR-M2a,82.8,83,160,170,-182.5,170,95,-97.5,,95,200,205,212.5,212.5,477.5,FL,
1,M,Raw,SBD,Raymond Fougnier,70,MR-M4a,80.3,83,-95,95,100,100,75,77.5,85,85,140,150,160,160,345,TN,
2,M,Raw,SBD,LD Shriner,70,MR-M4a,79.7,83,72.5,-75,-112.5,72.5,72.5,75,-92.5,75,112.5,137.5,140,140,287.5,FL,
3,M,Raw,SBD,Bill Sander,71,MR-M4a,81.7,83,45,,,45,102.5,108,-110,108,82.5,95,100,100,253,FL,
1,M,Raw,SBD,Tito Bastianelli Sr,79,MR-M4b,80.9,83,-120,120,122.5,122.5,-70,77.5,-82.5,77.5,130,160,170,170,370,NJ,
1,M,Raw,SBD,Robert Irving,21,MR-PF,81.9,83,210,-220,-220,210,145,150,-152.5,150,245,252.5,257.5,257.5,617.5,TX,1991
1,M,Raw,SBD,Donald Bigham,41,MR-MO,82.4,83,205,217.5,227.5,227.5,145,152.5,155,155,227.5,232.5,-245,232.5,615,AL,1972
1,M,Raw,SBD,Alex Tertitski,34,MR-O,83,83,227.5,242.5,255,255,150,157.5,162.5,162.5,292.5,315,,315,732.5,FL,
2,M,Raw,SBD,Derek Gove,25,MR-O,82.5,83,240,250,255,255,147.5,155,-160,155,280,287.5,-300,287.5,697.5,TX,1987
3,M,Raw,SBD,John Downing,23,MR-O,80.9,83,237.5,250,-262.5,250,150,162.5,-165,162.5,250,265,-275,265,677.5,OH,1990
4,M,Raw,SBD,Anthony Lucas,28,MR-O,81,83,225,232.5,-235,232.5,157.5,162.5,165,165,260,-262.5,-262.5,260,657.5,WA,1984
5,M,Raw,SBD,Ben Pollack,26,MR-O,82.3,83,200,220,230,230,135,140,145,145,265,280,-285,280,655,TX,1987
6,M,Raw,SBD,Ross Leppala,29,MR-O,82.6,83,-215,215,230,230,165,175,182.5,182.5,215,227.5,-235,227.5,640,AK,
7,M,Raw,SBD,Laddie Gibson,48,MR-O,82.7,83,182.5,205,210,210,167.5,177.5,-180,177.5,227.5,235,252.5,252.5,640,NY,
10,M,Raw,SBD,Lloyd Summers,29,MR-O,82.2,83,197.5,202.5,210,210,167.5,-177.5,-177.5,167.5,227.5,250,-272.5,250,627.5,OH,
8,M,Raw,SBD,Jonnie Candito,21,MR-O,80.5,83,215,230,-237.5,230,132.5,142.5,-147.5,142.5,237.5,255,-265,255,627.5,OH,1992
9,M,Raw,SBD,Michael Scokowski,23,MR-O,81.9,83,205,-215,-215,205,160,165,-170,165,245,257.5,-267.5,257.5,627.5,CT,
11,M,Raw,SBD,Richard Wenner,49,MR-O,82.8,83,182.5,197.5,207.5,207.5,137.5,147.5,155,155,230,250,262.5,262.5,625,AZ,
12,M,Raw,SBD,Donald Bigham,41,MR-O,82.4,83,205,217.5,227.5,227.5,145,152.5,155,155,227.5,232.5,-245,232.5,615,AL,1972
13,M,Raw,SBD,Jorge Unigarro,31,MR-O,82.1,83,187.5,192.5,197.5,197.5,140,145,147.5,147.5,250,260,-272.5,260,605,NY,1982
14,M,Raw,SBD,Matt Buttimer,26,MR-O,79.9,83,182.5,197.5,205,205,120,130,-132.5,130,227.5,250,265,265,600,GA,1986
15,M,Raw,SBD,Michael Soya,22,MR-O,81.7,83,177.5,190,200,200,137.5,147.5,-150,147.5,220,237.5,252.5,252.5,600,PA,1990
16,M,Raw,SBD,Donovan Thompson,47,MR-O,82.1,83,175,210,-217.5,210,142.5,160,-165.5,160,182.5,230,-245,230,600,NC,1966
17,M,Raw,SBD,Andrey Grebenetsky,22,MR-O,82.9,83,200,215,222.5,222.5,145,155,157.5,157.5,200,220,,220,600,NY,
18,M,Raw,SBD,Joe Sullivan,20,MR-O,81.9,83,205,215,-222.5,215,125,132.5,-142.5,132.5,215,230,,230,577.5,OH,
19,M,Raw,SBD,Leander Franklin,32,MR-O,82.4,83,177.5,180,182.5,182.5,155,-162.5,-162.5,155,240,-250,-250,240,577.5,LA,1980
20,M,Raw,SBD,Keith Schneider,21,MR-O,78.4,83,200,-212.5,-220,200,112.5,120,-127.5,120,242.5,-265,-265,242.5,562.5,OH,1992
21,M,Raw,SBD,Daniel Segal,25,MR-O,81.5,83,180,200,-217.5,200,120,132.5,-142.5,132.5,200,225,-245,225,557.5,VA,1988
22,M,Raw,SBD,William Payne #1,31,MR-O,82.5,83,182.5,187.5,192.5,192.5,-130,130,-137.5,130,220,225,235,235,557.5,OH,1982
23,M,Raw,SBD,Matt Maloney,28,MR-O,75.5,83,187.5,200,205,205,107.5,112.5,115,115,225,-235,-235,225,545,OH,1985
24,M,Raw,SBD,Steve Ritucci,34,MR-O,81.7,83,160,175,185,185,125,132.5,137.5,137.5,205,217.5,222.5,222.5,545,FL,
25,M,Raw,SBD,David Bell,25,MR-O,82.9,83,182.5,-190,,182.5,117.5,125,-130,125,185,195,207.5,207.5,515,GA,
DQ,M,Raw,SBD,Brian Espino,33,MR-O,82.8,83,160,-185,-185,160,,,,,,,,,,NY,
1,M,Raw,SBD,Nick Cataldi,15,MR-T1,86.1,93,142.5,152.5,-162.5,152.5,92.5,97.5,102.5,102.5,170,175,187.5,187.5,442.5,PA,
1,M,Raw,SBD,Abe Nassar,19,MR-T3,91.8,93,210,227.5,-235,227.5,140,150,157.5,157.5,217.5,237.5,257.5,257.5,642.5,FL,
2,M,Raw,SBD,Hayden Fulwood,18,MR-T3,89.4,93,165,175,182.5,182.5,125,130,-137.5,130,207.5,217.5,232.5,232.5,545,AL,
3,M,Raw,SBD,Michael Gomez,19,MR-T3,86.6,93,157.5,162.5,165,165,-117.5,125,130,130,175,-185,-185,175,470,TX,
1,M,Raw,SBD,Garrett Bailey,21,MR-Jr,92.9,93,227.5,245,-260,245,157.5,167.5,-170,167.5,300,-317.5,317.5,317.5,730,LA,
2,M,Raw,SBD,Tony Schwebach,22,MR-Jr,90.3,93,222.5,232.5,237.5,237.5,140,145,-150,145,265,272.5,-280,272.5,655,SD,
3,M,Raw,SBD,Charles Friday,23,MR-Jr,91.3,93,205,-220,-220,205,137.5,142.5,-147.5,142.5,220,235,242.5,242.5,590,TX,
4,M,Raw,SBD,Andrew Pichardo,22,MR-Jr,90.5,93,185,200,-215,200,122.5,130,-137.5,130,217.5,237.5,-257.5,237.5,567.5,FL,
5,M,Raw,SBD,Alexander Cramer,22,MR-Jr,87.3,93,-160,160,-170,160,110,120,130,130,225,240,-252.5,240,530,OH,
6,M,Raw,SBD,Steve Borowy,23,MR-Jr,91.9,93,175,185,-190,185,120,-130,-130,120,220,-237.5,-237.5,220,525,OH,
7,M,Raw,SBD,Corey Sayer,22,MR-Jr,84.9,93,125,-140,140,140,110,117.5,-122.5,117.5,160,175,185,185,442.5,OH,
1,M,Raw,SBD,Garrett Bailey,21,MR-C,92.9,93,227.5,245,-260,245,157.5,167.5,-170,167.5,300,-317.5,317.5,317.5,730,LA,
1,M,Raw,SBD,Chad Rexrode,44,MR-M1a,85.7,93,215,225,237.5,237.5,155,165,-167.5,165,237.5,252.5,260,260,662.5,VA,
2,M,Raw,SBD,Chad Landers,44,MR-M1a,85.7,93,130,137.5,145,145,105,110,115,115,157.5,167.5,175,175,435,CA,
1,M,Raw,SBD,Barry Hutchinson,45,MR-M1b,92,93,200,210,-215,210,140,145,150,150,235,250,-260,250,610,SD,
2,M,Raw,SBD,Thomas Mazzotta,45,MR-M1b,87.9,93,135,160,167.5,167.5,92.5,102.5,-110,102.5,165,187.5,200,200,470,OH,
3,M,Raw,SBD,Mike Hemmig,48,MR-M1b,85.4,93,137.5,145,147.5,147.5,97.5,102.5,-105,102.5,185,192.5,205,205,455,PA,
DQ,M,Raw,SBD,James Slone,46,MR-M1b,90,93,-207.5,-207.5,-207.5,,-137.5,,,,,,,,,AK,
1,M,Raw,SBD,David Ricks,53,MR-M2a,91.7,93,262.5,282.5,-300,282.5,170,182.5,197.5,197.5,265,287.5,307.5,307.5,787.5,GA,
1,M,Raw,SBD,Jeff Pagan,56,MR-M2b,90.2,93,155,-157.5,165,165,147.5,152.5,-155,152.5,155,165,170,170,487.5,AR,
2,M,Raw,SBD,Gary Grahn,57,MR-M2b,92.1,93,140,-150,150,150,110,115,120,120,160,175,190,190,460,MN,
1,M,Raw,SBD,Fred Rice,68,MR-M3b,92.1,93,-160,-160,160,160,85,90,,90,205,220,230,230,480,VA,
1,M,Raw,SBD,Richard Kuriger,71,MR-M4a,91.6,93,-60,60,70,70,42.5,45,47.5,47.5,102.5,115,125,125,242.5,TX,
1,M,Raw,SBD,David Ricks,53,MR-O,91.7,93,262.5,282.5,-300,282.5,170,182.5,197.5,197.5,265,287.5,307.5,307.5,787.5,GA,
2,M,Raw,SBD,LS McClain,34,MR-O,92.5,93,237.5,250,260,260,195,205,212.5,212.5,282.5,297.5,-317.5,297.5,770,TX,
3,M,Raw,SBD,Garrett Bailey,21,MR-O,92.9,93,227.5,245,-260,245,157.5,167.5,-170,167.5,300,-317.5,317.5,317.5,730,LA,
4,M,Raw,SBD,Anthony Parrella,30,MR-O,91.9,93,-232.5,-245,245,245,160,170,172.5,172.5,272.5,292.5,-305,292.5,710,NY,
5,M,Raw,SBD,Kris Hunt,31,MR-O,92.2,93,247.5,260,272.5,272.5,140,150,152.5,152.5,250,265,282.5,282.5,707.5,IN,
6,M,Raw,SBD,Jordan Feigenbaum,28,MR-O,91.2,93,207.5,227.5,-230,227.5,155,162.5,-170,162.5,250,272.5,282.5,282.5,672.5,VA,
7,M,Raw,SBD,Brady Singleton,27,MR-O,92.7,93,215,227.5,-235,227.5,147.5,157.5,162.5,162.5,265,-275,280,280,670,IN,
8,M,Raw,SBD,Corey Joyal,36,MR-O,91.6,93,227.5,240,252.5,252.5,147.5,155,-162.5,155,232.5,247.5,260,260,667.5,MD,
9,M,Raw,SBD,Chad Rexrode,44,MR-O,85.7,93,215,225,237.5,237.5,155,165,-167.5,165,237.5,252.5,260,260,662.5,VA,
10,M,Raw,SBD,Anthony Loreto,26,MR-O,91.4,93,222.5,235,242.5,242.5,140,147.5,-152.5,147.5,270,-292.5,-292.5,270,660,FL,
11,M,Raw,SBD,Tommy Janusz,27,MR-O,91.1,93,167.5,190,212.5,212.5,175,185,195,195,227.5,250,,250,657.5,TX,
12,M,Raw,SBD,David Hamilton,33,MR-O,92.1,93,215,227.5,230,230,155,160,167.5,167.5,240,260,-267.5,260,657.5,TX,
13,M,Raw,SBD,Justin Martin,27,MR-O,89.6,93,215,230,-237.5,230,135,145,-152.5,145,247.5,262.5,272.5,272.5,647.5,MS,
14,M,Raw,SBD,Dusty Farrow,33,MR-O,90.9,93,215,-240,-240,215,140,155,-170,155,250,265,-275,265,635,AK,
15,M,Raw,SBD,Derek Gelato,27,MR-O,90.2,93,215,217.5,-227.5,217.5,137.5,145,150,150,240,255,-265,255,622.5,NY,
16,M,Raw,SBD,Eric Lohman,24,MR-O,91.7,93,200,215,-225,215,140,147.5,-150,147.5,230,245,250,250,612.5,MN,
17,M,Raw,SBD,Justin Brandon,32,MR-O,92.5,93,205,-227.5,-227.5,205,140,-150,-150,140,250,265,267.5,267.5,612.5,GA,
18,M,Raw,SBD,Drew Thompson,24,MR-O,88,93,200,210,220,220,155,-165,-165,155,220,230,-240,230,605,IL,
19,M,Raw,SBD,Dustin Starer,27,MR-O,92.4,93,180,195,200,200,125,-127.5,130,130,170,225,272.5,272.5,602.5,PA,
20,M,Raw,SBD,Elliott White,27,MR-O,91.8,93,182.5,195,-205,195,132.5,140,147.5,147.5,215,225,232.5,232.5,575,VA,
21,M,Raw,SBD,Arian Khamesi,25,MR-O,90.4,93,177.5,190,197.5,197.5,115,125,-130,125,212.5,230,235,235,557.5,FL,
22,M,Raw,SBD,Christian Evans,36,MR-O,92.5,93,-170,170,190,190,105,112.5,122.5,122.5,200,230,240,240,552.5,DC,
23,M,Raw,SBD,Eli Butcher,32,MR-O,90.8,93,195,-197.5,-215,195,122.5,-130,-130,122.5,207.5,215,-217.5,215,532.5,OH,
DQ,M,Raw,SBD,Otar Datan,29,MR-O,86.3,93,-205,-212.5,-212.5,,112.5,120,-122.5,120,242.5,252.5,,252.5,,NY,
1,M,Raw,SBD,Sam Downey,17,MR-T2,100,105,220,-230,-237.5,220,125,140,147.5,147.5,182.5,200,205,205,572.5,GA,
1,M,Raw,SBD,Ryan de la Cruz,19,MR-T3,96.6,105,230,242.5,250,250,127.5,-137.5,-137.5,127.5,182.5,245,-262.5,245,622.5,TX,
2,M,Raw,SBD,Dustin Brooks,19,MR-T3,101.5,105,205,210,227.5,227.5,130,137.5,-142.5,137.5,227.5,-230,230,230,595,VA,
3,M,Raw,SBD,Zach Robb,18,MR-T3,102.1,105,195,205,-217.5,205,125,130,-137.5,130,210,215,227.5,227.5,562.5,VA,
1,M,Raw,SBD,William LeBlanc,22,MR-Jr,103.1,105,250,277.5,-292.5,277.5,160,-170,170,170,282.5,290,-305,290,737.5,TX,
2,M,Raw,SBD,Will Wright,21,MR-Jr,104.7,105,257.5,-262.5,,257.5,172.5,-182.5,-182.5,172.5,272.5,287.5,305,305,735,AL,
3,M,Raw,SBD,Gregory Johnson,22,MR-Jr,95.7,105,225,240,252.5,252.5,142.5,150,-152.5,150,302.5,320,327.5,327.5,730,TX,
4,M,Raw,SBD,Douglas Bowen,22,MR-Jr,104,105,257.5,272.5,280,280,145,152.5,-160,152.5,255,267.5,287.5,287.5,720,PA,
5,M,Raw,SBD,Anthony Petrucci,21,MR-Jr,103.1,105,230,245,-255,245,157.5,167.5,170,170,255,275,-287.5,275,690,PA,
6,M,Raw,SBD,Austin Pappas,21,MR-Jr,103.9,105,222.5,-237.5,-237.5,222.5,175,190,195,195,245,257.5,-272.5,257.5,675,ND,
7,M,Raw,SBD,Joseph Loyacono,21,MR-Jr,102.5,105,215,-227.5,-232.5,215,162.5,-167.5,-167.5,162.5,277.5,287.5,-295,287.5,665,NY,
8,M,Raw,SBD,James Meador IV,21,MR-Jr,102.1,105,225,-250,-267.5,225,125,142.5,-150,142.5,225,252.5,-265,252.5,620,TX,
9,M,Raw,SBD,Taylor Harris,22,MR-Jr,105,105,180,190,205,205,135,142.5,150,150,230,240,247.5,247.5,602.5,PA,
10,M,Raw,SBD,Aaron Boulay,22,MR-Jr,100.9,105,185,202.5,-220,202.5,125,140,-142.5,140,230,252.5,-272.5,252.5,595,CT,
11,M,Raw,SBD,Randall Harrison,20,MR-Jr,97.6,105,180,195,207.5,207.5,125,130,137.5,137.5,195,205,-250,205,550,PA,
12,M,Raw,SBD,Martin Halfant,23,MR-Jr,101,105,162.5,175,-185,175,102.5,115,122.5,122.5,192.5,212.5,220,220,517.5,TX,
1,M,Raw,SBD,Douglas Bowen,22,MR-C,104,105,257.5,272.5,280,280,145,152.5,-160,152.5,255,267.5,287.5,287.5,720,PA,
2,M,Raw,SBD,Austin Pappas,21,MR-C,103.9,105,222.5,-237.5,-237.5,222.5,175,190,195,195,245,257.5,-272.5,257.5,675,ND,
3,M,Raw,SBD,James Meador IV,21,MR-C,102.1,105,225,-250,-267.5,225,125,142.5,-150,142.5,225,252.5,-265,252.5,620,TX,
4,M,Raw,SBD,Taylor Harris,22,MR-C,105,105,180,190,205,205,135,142.5,150,150,230,240,247.5,247.5,602.5,PA,
5,M,Raw,SBD,Zach Robb,18,MR-C,102.1,105,195,205,-217.5,205,125,130,-137.5,130,210,215,227.5,227.5,562.5,VA,
1,M,Raw,SBD,Roy Andrew,45,MR-M1b,102,105,195,207.5,-215,207.5,145,152.5,-157.5,152.5,237.5,250,262.5,262.5,622.5,VA,
2,M,Raw,SBD,Greg Titus,46,MR-M1b,98.4,105,185,195,200,200,162.5,170,175,175,232.5,240,245,245,620,FL,
3,M,Raw,SBD,Will Slade,48,MR-M1b,102.9,105,100,215,227.5,227.5,145,157.5,-162.5,157.5,100,-205,215,215,600,MD,
4,M,Raw,SBD,Chris Williams #4,45,MR-M1b,101.9,105,157.5,175,182.5,182.5,140,150,162.5,162.5,215,230,250,250,595,WA,
1,M,Raw,SBD,Mark Robb,53,MR-M2a,102.2,105,245,262.5,272.5,272.5,140,150,-155,150,280,295,-305,295,717.5,VA,
2,M,Raw,SBD,Doug Benedict,54,MR-M2a,102.6,105,177.5,190,-200,190,110,120,-132.5,120,207.5,222.5,-235,222.5,532.5,MD,
1,M,Raw,SBD,Hal Lloyd,55,MR-M2b,104.1,105,195,210,-215,210,122.5,127.5,-130,127.5,232.5,242.5,245,245,582.5,AK,
2,M,Raw,SBD,Warren Dickerson,57,MR-M2b,94.5,105,-167.5,177.5,182.5,182.5,130,137.5,140,140,242.5,252.5,-260,252.5,575,FL,
1,M,Raw,SBD,Al Wood,63,MR-M3a,102.9,105,142.5,155,-162.5,155,-95,95,102.5,102.5,175,-185,190,190,447.5,TX,
1,M,Raw,SBD,Deane E. Kogelschatz,74,MR-M4a,101.3,105,75,95,100,100,65,75,-80,75,130,150,,150,325,AL,
1,M,Raw,SBD,Austin Pappas,21,MR-MO,103.9,105,222.5,-237.5,-237.5,222.5,175,190,195,195,245,257.5,-272.5,257.5,675,ND,
1,M,Raw,SBD,Nick Tylutki,34,MR-O,102.6,105,285,300,305,305,165,-175,175,175,290,305,-320,305,785,MN,
2,M,Raw,SBD,Robert Trettin,26,MR-O,104.1,105,260,277.5,282.5,282.5,192.5,-205,-205,192.5,267.5,282.5,300,300,775,WI,
3,M,Raw,SBD,William LeBlanc,22,MR-O,103.1,105,250,277.5,-292.5,277.5,160,-170,170,170,282.5,290,-305,290,737.5,TX,
4,M,Raw,SBD,Gregory Johnson,22,MR-O,95.7,105,225,240,252.5,252.5,142.5,150,-152.5,150,302.5,320,327.5,327.5,730,TX,
5,M,Raw,SBD,John Norcott,24,MR-O,103.1,105,262.5,265,-272.5,265,167.5,175,-177.5,175,285,-297.5,-297.5,285,725,MA,
6,M,Raw,SBD,Konstantin Popov,30,MR-O,104.1,105,240,260,-270,260,170,-180,180,180,270,280,-285,280,720,MD,
7,M,Raw,SBD,Mark Robb,53,MR-O,102.2,105,245,262.5,272.5,272.5,140,150,-155,150,280,295,-305,295,717.5,VA,
8,M,Raw,SBD,Jordan Krogman,25,MR-O,100.1,105,262.5,270,-275,270,167.5,-175,-175,167.5,277.5,-285,-287.5,277.5,715,MN,
9,M,Raw,SBD,Jack DiBenedetto,28,MR-O,103.3,105,-245,260,272.5,272.5,177.5,185,190,190,227.5,250,-265,250,712.5,NJ,
10,M,Raw,SBD,Daniel Reid,25,MR-O,104.8,105,230,247.5,-262.5,247.5,137.5,155,-160,155,280,302.5,-320,302.5,705,MA,
11,M,Raw,SBD,Matthew Clark,26,MR-O,96.7,105,222.5,225,240,240,172.5,-180,-180,172.5,290,-305,-305,290,702.5,IL,
12,M,Raw,SBD,Aaron Boyd,25,MR-O,101.2,105,217.5,220,247.5,247.5,135,-150,-157.5,135,295,312.5,-317.5,312.5,695,VA,
13,M,Raw,SBD,Edward Christie,38,MR-O,103.4,105,220,230,-237.5,230,140,147.5,-155,147.5,295,305,-315,305,682.5,PA,
14,M,Raw,SBD,Austin Pappas,21,MR-O,103.9,105,222.5,-237.5,-237.5,222.5,175,190,195,195,245,257.5,-272.5,257.5,675,ND,
15,M,Raw,SBD,Barrett Perdue,29,MR-O,105,105,220,232.5,-250,232.5,-170,185,-190,185,250,-280,-280,250,667.5,OK,
16,M,Raw,SBD,Chris Thacker,35,MR-O,103.8,105,-245,245,-255,245,152.5,162.5,-165,162.5,-250,-250,250,250,657.5,IL,
17,M,Raw,SBD,Matt Gary,41,MR-O,103.1,105,187.5,197.5,207.5,207.5,137.5,145,152.5,152.5,240,255,267.5,267.5,627.5,MD,
18,M,Raw,SBD,John Hudock,24,MR-O,96.2,105,192.5,202.5,-212.5,202.5,175,-182.5,-182.5,175,227.5,230,-250,230,607.5,PA,
19,M,Raw,SBD,Aaron Boulay,22,MR-O,100.9,105,185,202.5,-220,202.5,125,140,-142.5,140,230,252.5,-272.5,252.5,595,CT,
20,M,Raw,SBD,Dustin Brooks,19,MR-O,101.5,105,205,210,227.5,227.5,130,137.5,-142.5,137.5,227.5,-230,230,230,595,VA,
21,M,Raw,SBD,Sam Downey,17,MR-O,100,105,220,-230,-237.5,220,125,140,147.5,147.5,182.5,200,205,205,572.5,GA,
22,M,Raw,SBD,Timothy Struve,26,MR-O,98.4,105,170,185,195,195,140,150,-155,150,205,215,225,225,570,IL,
DQ,M,Raw,SBD,Andres Bonelli,34,MR-O,104.3,105,-210,-210,-210,,-142.5,,,,,,,,,FL,1979
1,M,Raw,SBD,Hunter Pooser,19,MR-T3,116.9,120,250,-262.5,,250,150,162.5,-165,162.5,250,262.5,-272.5,262.5,675,GA,1994
1,M,Raw,SBD,Nathan Zephir,22,MR-Jr,113.5,120,222.5,237.5,247.5,247.5,182.5,195,202.5,202.5,242.5,260,277.5,277.5,727.5,FL,1991
2,M,Raw,SBD,Christopher Scavicchio,21,MR-Jr,115.2,120,247.5,260,265,265,157.5,167.5,-172.5,167.5,235,-250,-252.5,235,667.5,PA,
1,M,Raw,SBD,Chris Campbell,26,MR-C,106.6,120,220,-240,-240,220,182.5,190,-192.5,190,245,260,-267.5,260,670,VA,1987
1,M,Raw,SBD,Robert Schmidt,40,MR-M1a,117.9,120,240,250,-257.5,250,170,177.5,180,180,235,250,-265,250,680,AK,1973
2,M,Raw,SBD,Patrick Chambers,43,MR-M1a,108.9,120,185,200,-210,200,-175,175,-182.5,175,235,255,272.5,272.5,647.5,PA,1970
3,M,Raw,SBD,Joseph Nicholson,44,MR-M1a,117.5,120,165,175,182.5,182.5,127.5,-137.5,-137.5,127.5,200,220,-225,220,530,FL,1969
1,M,Raw,SBD,James Dundon,48,MR-M1b,115.1,120,-220,220,-232.5,220,167.5,175,-182.5,175,217.5,230,237.5,237.5,632.5,FL,1965
2,M,Raw,SBD,Lance Robbins,49,MR-M1b,110.9,120,190,205,-210,205,132.5,-137.5,-137.5,132.5,220,227.5,-232.5,227.5,565,GA,1963
3,M,Raw,SBD,Brett Robbins,49,MR-M1b,112.4,120,187.5,205,-215,205,132.5,-137.5,-137.5,132.5,220,227.5,-232.5,227.5,565,GA,1963
1,M,Raw,SBD,Joe Dentice,54,MR-M2a,118.1,120,165,-182.5,,165,155,162.5,-165,162.5,145,190,230,230,557.5,NV,1958
1,M,Raw,SBD,David Sewell,57,MR-M2b,108.1,120,197.5,-227.5,-227.5,197.5,125,137.5,140,140,210,227.5,240,240,577.5,AL,1955
1,M,Raw,SBD,Gerald W. Jake Burke,68,MR-M3b,108.3,120,145,-155,167.5,167.5,137.5,-142.5,142.5,142.5,142.5,147.5,160,160,470,PA,1944
1,M,Raw,SBD,Floyd W. Hayes III,70,MR-M4a,113.9,120,85,95,105,105,125,130,132.5,132.5,165,,,165,402.5,MD,1942
1,M,Raw,SBD,Daniel Hester,27,MR-SO,118.5,120,165,177.5,-187.5,177.5,102.5,-117.5,-117.5,102.5,212.5,220,232.5,232.5,512.5,GA,1985
1,M,Raw,SBD,Ed Minelli,24,MR-PF,109.7,120,217.5,235,237.5,237.5,142.5,155,160,160,260,285,292.5,292.5,690,MA,1988
2,M,Raw,SBD,Joseph Visconti,34,MR-PF,110,120,175,-185,185,185,180,190,197.5,197.5,245,260,-267.5,260,642.5,VA,1978
3,M,Raw,SBD,James Wilson #12,,MR-PF,118,120,205,217.5,227.5,227.5,145,150,-155,150,217.5,230,-237.5,230,607.5,FL,1988
1,M,Raw,SBD,Michael Tuchscherer,28,MR-O,118.8,120,305,325,337.5,337.5,192.5,200,205,205,340,357.5,370,370,912.5,IN,1985
2,M,Raw,SBD,Jared Martin #1,,MR-O,117.7,120,312.5,322.5,327.5,327.5,180,190,192.5,192.5,310,322.5,335,335,855,IN,1989
3,M,Raw,SBD,Thad Benefield,37,MR-O,118.5,120,255,275,280,280,195,212.5,-220,212.5,295,322.5,327.5,327.5,820,NC,1975
4,M,Raw,SBD,Ronald Scott Yard,30,MR-O,119,120,272.5,285,-295,285,205,215,-225,215,285,302.5,317.5,317.5,817.5,PA,1982
5,M,Raw,SBD,Mike Hedlesky,28,MR-O,116.6,120,242.5,257.5,277.5,277.5,175,-182.5,-182.5,175,330,-347.5,-347.5,330,782.5,MD,
6,M,Raw,SBD,Vasil Gushterov,37,MR-O,114.1,120,250,260,265,265,175,185,-192.5,185,310,320,-332.5,320,770,CO,1975
7,M,Raw,SBD,Lorenzo Peterson,32,MR-O,110.5,120,225,237.5,250,250,157.5,170,182.5,182.5,270,295,317.5,317.5,750,WY,1981
8,M,Raw,SBD,Carl LaRovera Jr,30,MR-O,118,120,230,252.5,272.5,272.5,155,172.5,182.5,182.5,270,295,-305,295,750,CT,
9,M,Raw,SBD,Ryan Gill,36,MR-O,119,120,227.5,245,255,255,177.5,190,-197.5,190,257.5,277.5,287.5,287.5,732.5,PA,1976
10,M,Raw,SBD,Ed Minelli,24,MR-O,109.7,120,217.5,235,237.5,237.5,142.5,155,160,160,260,285,292.5,292.5,690,MA,1988
11,M,Raw,SBD,Robert Schmidt,40,MR-O,117.9,120,240,250,-257.5,250,170,177.5,180,180,235,250,-265,250,680,AK,1973
12,M,Raw,SBD,Chris Campbell,26,MR-O,106.6,120,220,-240,-240,220,182.5,190,-192.5,190,245,260,-267.5,260,670,VA,1987
13,M,Raw,SBD,Paul Felder,29,MR-O,117.2,120,215,-235,235,235,155,162.5,-170,162.5,247.5,265,-280,265,662.5,OH,1983
14,M,Raw,SBD,Joseph Visconti,34,MR-O,110,120,175,-185,185,185,180,190,197.5,197.5,245,260,-267.5,260,642.5,VA,1978
15,M,Raw,SBD,James Dundon,48,MR-O,115.1,120,-220,220,-232.5,220,167.5,175,-182.5,175,217.5,230,237.5,237.5,632.5,FL,1965
16,M,Raw,SBD,Charles Gonzales,29,MR-O,105.9,120,185,192.5,205,205,130,132.5,142.5,142.5,235,252.5,-272.5,252.5,600,TX,1984
17,M,Raw,SBD,Harry Derr III,37,MR-O,114.3,120,205,217.5,227.5,227.5,142.5,152.5,-160,152.5,205,220,-232.5,220,600,MD,1976
18,M,Raw,SBD,Daniel Hester,27,MR-O,118.5,120,165,177.5,-187.5,177.5,102.5,-117.5,-117.5,102.5,212.5,220,232.5,232.5,512.5,GA,1985
1,M,Raw,SBD,Zachary Strouse,16,MR-T2,126,120+,-237.5,237.5,257.5,257.5,125,132.5,137.5,137.5,260,275,290,290,685,PA,1997
2,M,Raw,SBD,Elijah Graves,16,MR-T2,125.2,120+,90,100,-115,100,80,92.5,100,100,135,160,182.5,182.5,382.5,AL,1997
1,M,Raw,SBD,Alex Conover,19,MR-T3,127.5,120+,-227.5,-227.5,227.5,227.5,145,160,165,165,240,252.5,-260,252.5,645,NJ,
2,M,Raw,SBD,Jeremy Fischer,19,MR-T3,181,120+,210,-235,-235,210,132.5,137.5,-140,137.5,-210,-210,210,210,557.5,WI,1993
1,M,Raw,SBD,Luke Klein,21,MR-Jr,156,120+,265,280,287.5,287.5,175,182.5,187.5,187.5,272.5,290,302.5,302.5,777.5,MN,
1,M,Raw,SBD,Michael Ricker,47,MR-M1b,137.5,120+,160,182.5,195,195,160,170,175,175,230,250,-260,250,620,FL,1965
2,M,Raw,SBD,Carl Werda,47,MR-M1b,141,120+,-212.5,215,217.5,217.5,137.5,142.5,150,150,230,250,-265,250,617.5,NE,1966
1,M,Raw,SBD,Scott Gardner,27,MR-PF,152.5,120+,212.5,232.5,237.5,237.5,167.5,182.5,187.5,187.5,280,-297.5,-297.5,280,705,SC,1986
1,M,Raw,SBD,Ray Williams #1,26,MR-O,162.6,120+,390,400.5,-410,400.5,215,222.5,227.5,227.5,317.5,340,-365,340,968,MS,1986
2,M,Raw,SBD,Blaine Sumner,26,MR-O,162.5,120+,355,375,395,395,212.5,220,222.5,222.5,-320,-320,320,320,937.5,OK,1987
3,M,Raw,SBD,Matt Baller,27,MR-O,141.4,120+,282.5,297.5,307.5,307.5,240,247.5,255.5,255.5,-267.5,267.5,277.5,277.5,840.5,AK,
4,M,Raw,SBD,Dennis Hulslander,41,MR-O,143.4,120+,277.5,295,302.5,302.5,187.5,200,-205,200,310,325,327.5,327.5,830,PA,1971
5,M,Raw,SBD,Emil Gouchterov,36,MR-O,139.2,120+,250,262.5,290,290,150,167.5,-172.5,167.5,330,340,-352.5,340,797.5,CO,1977
6,M,Raw,SBD,William Burrell,26,MR-O,128.5,120+,-275,275,-290,275,202.5,-207.5,-207.5,202.5,295,-305,305,305,782.5,AL,1986
7,M,Raw,SBD,John Stevens,33,MR-O,129,120+,272.5,280,-287.5,280,165,175,182.5,182.5,285,295,-300,295,757.5,FL,1980
8,M,Raw,SBD,Scott Gardner,27,MR-O,152.5,120+,212.5,232.5,237.5,237.5,167.5,182.5,187.5,187.5,280,-297.5,-297.5,280,705,SC,1986
DQ,M,Raw,SBD,Michael Battaglino,27,MR-O,129.1,120+,242.5,-257.5,-257.5,242.5,,,,,,,,,,TX,1985
