Name,WeightClassKg,Division,AgeClass,Sex,Best3SquatKg,Best3BenchKg,Best3DeadliftKg,TotalKg,Event,Equipment,Place
Joe Orengia Jr,52,Teen 14-15,14-15,M,106.59,61.24,136.08,303.91,SBD,Single-ply,1
T. Clancy,52,Teen 14-15,14-15,M,72.57,56.7,113.4,242.67,SBD,Single-ply,2
Mike Altieri,56,Teen 14-15,14-15,M,142.88,97.52,163.29,403.7,SBD,Single-ply,1
A. Metzinger,56,Teen 14-15,14-15,M,124.74,63.5,131.54,319.78,SBD,Single-ply,2
M. Heintzelman,56,Teen 14-15,14-15,M,90.72,52.16,122.47,265.35,SBD,Single-ply,3
W. Morris,60,Teen 14-15,14-15,M,133.81,102.06,176.9,412.77,SBD,Single-ply,1
J. Buser,60,Teen 14-15,14-15,M,120.2,88.45,136.08,344.73,SBD,Single-ply,2
S. Smoyer,60,Teen 14-15,14-15,M,120.2,77.11,136.08,333.39,SBD,Single-ply,3
M. Missmer,60,Teen 14-15,14-15,M,99.79,70.31,142.88,312.98,SBD,Single-ply,4
T. McFadden,60,Teen 14-15,14-15,M,102.06,70.31,131.54,303.91,SBD,Single-ply,5
Rich Arrington,67.5,Teen 14-15,14-15,M,183.71,113.4,199.58,496.68,SBD,Single-ply,1
D. Bender,67.5,Teen 14-15,14-15,M,145.15,97.52,192.78,435.45,SBD,Single-ply,2
C. Suarez,67.5,Teen 14-15,14-15,M,133.81,88.45,161.03,383.29,SBD,Single-ply,3
J. Cober,67.5,Teen 14-15,14-15,M,117.93,77.11,156.49,351.53,SBD,Single-ply,4
C. Kimmel,67.5,Teen 14-15,14-15,M,102.06,52.16,127.01,281.23,SBD,Single-ply,5
T. West,67.5,Teen 14-15,14-15,M,79.38,56.7,113.4,249.48,SBD,Single-ply,6
D. Minor,75,Teen 14-15,14-15,M,161.03,127.01,181.44,469.47,SBD,Single-ply,1
M. Hannish,75,Teen 14-15,14-15,M,145.15,104.33,185.97,435.45,SBD,Single-ply,2
L. Schoot,75,Teen 14-15,14-15,M,163.29,74.84,176.9,415.04,SBD,Single-ply,3
S. Morgan,75,Teen 14-15,14-15,M,131.54,90.72,161.03,383.29,SBD,Single-ply,4
D. Care Jr,75,Teen 14-15,14-15,M,136.08,90.72,147.42,374.21,SBD,Single-ply,5
N. Putnam,75,Teen 14-15,14-15,M,124.74,95.25,151.95,371.95,SBD,Single-ply,6
R. Gentile,82.5,Teen 14-15,14-15,M,170.1,108.86,219.99,498.95,SBD,Single-ply,1
V. Gatti,82.5,Teen 14-15,14-15,M,124.74,122.47,158.76,405.97,SBD,Single-ply,2
E. Pinchek,82.5,Teen 14-15,14-15,M,113.4,97.52,188.24,399.16,SBD,Single-ply,3
K. Mooney,90,Teen 14-15,14-15,M,179.17,102.06,204.12,485.34,SBD,Single-ply,1
J. Mahoney,90,Teen 14-15,14-15,M,120.2,88.45,158.76,367.41,SBD,Single-ply,2
W. Searfoss,125,Teen 14-15,14-15,M,140.61,104.33,167.83,412.77,SBD,Single-ply,1
Chris Panchelli,52,Teen 16-17,16-17,M,117.93,77.11,149.69,344.73,SBD,Single-ply,1
J. Ruzicka,52,Teen 16-17,16-17,M,113.4,83.91,145.15,342.46,SBD,Single-ply,2
J. Ziegler,52,Teen 16-17,16-17,M,117.93,68.04,136.08,322.05,SBD,Single-ply,3
D. Smith,52,Teen 16-17,16-17,M,113.4,63.5,138.35,315.25,SBD,Single-ply,4
W. Snyder,52,Teen 16-17,16-17,M,111.13,54.43,136.08,301.64,SBD,Single-ply,5
T. Gouse,56,Teen 16-17,16-17,M,124.74,68.04,151.95,344.73,SBD,Single-ply,1
A. Paul,56,Teen 16-17,16-17,M,104.33,70.31,136.08,310.71,SBD,Single-ply,2
K. Mayer,60,Teen 16-17,16-17,M,136.08,97.52,188.24,421.84,SBD,Single-ply,1
Steve Snyder #1,60,Teen 16-17,16-17,M,127.01,106.59,172.37,405.97,SBD,Single-ply,2
B. Gloth,60,Teen 16-17,16-17,M,138.35,65.77,165.56,369.68,SBD,Single-ply,3
J. Sunday,67.5,Teen 16-17,16-17,M,183.71,115.67,208.65,508.02,SBD,Single-ply,1
M. McMurroy,67.5,Teen 16-17,16-17,M,190.51,111.13,204.12,505.76,SBD,Single-ply,2
P. Petrella,67.5,Teen 16-17,16-17,M,190.51,111.13,176.9,478.54,SBD,Single-ply,3
E. Bucci,67.5,Teen 16-17,16-17,M,174.63,108.86,181.44,464.93,SBD,Single-ply,4
D. Frate,67.5,Teen 16-17,16-17,M,167.83,113.4,183.71,464.93,SBD,Single-ply,5
P. Yaich,67.5,Teen 16-17,16-17,M,167.83,113.4,183.71,464.93,SBD,Single-ply,6
John Welch III,67.5,Teen 16-17,16-17,M,165.56,115.67,181.44,462.66,SBD,Single-ply,7
D. Tretter,67.5,Teen 16-17,16-17,M,158.76,111.13,170.1,439.99,SBD,Single-ply,8
D. Krempasky,67.5,Teen 16-17,16-17,M,145.15,106.59,176.9,428.65,SBD,Single-ply,9
K. Hodge,67.5,Teen 16-17,16-17,M,151.95,99.79,158.76,410.5,SBD,Single-ply,10
T. Sangiuliano,67.5,Teen 16-17,16-17,M,129.27,95.25,181.44,405.97,SBD,Single-ply,11
J. Williamson,67.5,Teen 16-17,16-17,M,113.4,81.65,176.9,371.95,SBD,Single-ply,12
T. Wendling,67.5,Teen 16-17,16-17,M,122.47,95.25,151.95,369.68,SBD,Single-ply,13
P. Caci,67.5,Teen 16-17,16-17,M,102.06,90.72,158.76,351.53,SBD,Single-ply,14
C. Hardy,67.5,Teen 16-17,16-17,M,90.72,95.25,154.22,340.19,SBD,Single-ply,15
G. Geissinger,75,Teen 16-17,16-17,M,188.24,115.67,226.8,530.7,SBD,Single-ply,1
T. Ciaviaglia,75,Teen 16-17,16-17,M,181.44,90.72,192.78,464.93,SBD,Single-ply,2
Geo Kline,75,Teen 16-17,16-17,M,149.69,99.79,188.24,437.72,SBD,Single-ply,3
T. Morrison,75,Teen 16-17,16-17,M,151.95,102.06,170.1,424.11,SBD,Single-ply,4
R. Novitsky,75,Teen 16-17,16-17,M,136.08,86.18,192.78,415.04,SBD,Single-ply,5
E. Zellner,75,Teen 16-17,16-17,M,133.81,97.52,183.71,415.04,SBD,Single-ply,6
J. Hinkle,75,Teen 16-17,16-17,M,147.42,90.72,170.1,408.23,SBD,Single-ply,7
B. DiCataldo,75,Teen 16-17,16-17,M,120.2,90.72,140.61,351.53,SBD,Single-ply,8
J. Creitz,82.5,Teen 16-17,16-17,M,219.99,147.42,244.94,612.35,SBD,Single-ply,1
B. Ruth,82.5,Teen 16-17,16-17,M,174.63,136.08,233.6,544.31,SBD,Single-ply,2
J. Casciano,82.5,Teen 16-17,16-17,M,192.78,111.13,199.58,503.49,SBD,Single-ply,3
R. DeLong,82.5,Teen 16-17,16-17,M,174.63,120.2,201.85,496.68,SBD,Single-ply,4
J. Wasson,82.5,Teen 16-17,16-17,M,151.95,106.59,183.71,442.25,SBD,Single-ply,5
J. DiSabatinoi,82.5,Teen 16-17,16-17,M,117.93,127.01,185.97,430.91,SBD,Single-ply,6
M. Ancona,90,Teen 16-17,16-17,M,235.87,136.08,215.46,587.4,SBD,Single-ply,1
M. Sodl,90,Teen 16-17,16-17,M,197.31,131.54,210.92,539.78,SBD,Single-ply,2
W. Joseph,90,Teen 16-17,16-17,M,170.1,127.01,226.8,523.9,SBD,Single-ply,3
A. Karapelou,90,Teen 16-17,16-17,M,190.51,124.74,208.65,523.9,SBD,Single-ply,4
M. Sylvester,90,Teen 16-17,16-17,M,192.78,102.06,204.12,498.95,SBD,Single-ply,5
R. Creter,90,Teen 16-17,16-17,M,111.13,77.11,158.76,347,SBD,Single-ply,6
E. Payne,100,Teen 16-17,16-17,M,213.19,136.08,226.8,576.06,SBD,Single-ply,1
S. Sokol,100,Teen 16-17,16-17,M,195.04,113.4,215.46,523.9,SBD,Single-ply,2
R. Gierula,110,Teen 16-17,16-17,M,195.04,149.69,235.87,580.6,SBD,Single-ply,1
Brett Bozzelli,52,Teen 18-19,18-19,M,113.4,92.99,147.42,353.8,SBD,Single-ply,1
Matt Machtay,56,Teen 18-19,18-19,M,151.95,95.25,181.44,428.65,SBD,Single-ply,1
T. Deebel,60,Teen 18-19,18-19,M,154.22,99.79,167.83,421.84,SBD,Single-ply,1
V. Scalisi,60,Teen 18-19,18-19,M,136.08,90.72,158.76,385.55,SBD,Single-ply,2
Jack Rubio,60,Teen 18-19,18-19,M,102.06,106.59,142.88,351.53,SBD,Single-ply,3
B. Batdorf,67.5,Teen 18-19,18-19,M,233.6,115.67,235.87,585.13,SBD,Single-ply,1
G. Larock,67.5,Teen 18-19,18-19,M,165.56,97.52,217.72,480.81,SBD,Single-ply,2
M. Blanchard,67.5,Teen 18-19,18-19,M,149.69,97.52,204.12,451.32,SBD,Single-ply,3
M. Harriss,67.5,Teen 18-19,18-19,M,142.88,95.25,201.85,439.99,SBD,Single-ply,4
J. Rathbaun,67.5,Teen 18-19,18-19,M,151.95,88.45,179.17,419.57,SBD,Single-ply,5
K. Oree,67.5,Teen 18-19,18-19,M,131.54,86.18,151.95,369.68,SBD,Single-ply,6
P. Bretz,67.5,Teen 18-19,18-19,M,81.65,77.11,138.35,297.1,SBD,Single-ply,7
M. Moran,75,Teen 18-19,18-19,M,235.87,136.08,217.72,589.67,SBD,Single-ply,1
B. Verta,75,Teen 18-19,18-19,M,204.12,120.2,222.26,546.58,SBD,Single-ply,2
J. Jones,75,Teen 18-19,18-19,M,217.72,108.86,215.46,542.04,SBD,Single-ply,3
T. Shelly,75,Teen 18-19,18-19,M,172.37,113.4,199.58,485.34,SBD,Single-ply,4
D. Quigg,75,Teen 18-19,18-19,M,154.22,111.13,190.51,455.86,SBD,Single-ply,5
G. Kunkel Jr,75,Teen 18-19,18-19,M,149.69,124.74,181.44,455.86,SBD,Single-ply,6
S. Hutz,75,Teen 18-19,18-19,M,131.54,124.74,199.58,455.86,SBD,Single-ply,7
D. Care,75,Teen 18-19,18-19,M,149.69,104.33,181.44,435.45,SBD,Single-ply,8
Richard Wenner,82.5,Teen 18-19,18-19,M,272.16,165.56,258.55,696.27,SBD,Single-ply,1
Jeff Rizzuto,82.5,Teen 18-19,18-19,M,235.87,136.08,242.67,614.62,SBD,Single-ply,2
S. Gerencser,82.5,Teen 18-19,18-19,M,206.38,149.69,226.8,582.87,SBD,Single-ply,3
P. Babinsky,82.5,Teen 18-19,18-19,M,199.58,117.93,229.06,546.58,SBD,Single-ply,4
J. Kerwin,82.5,Teen 18-19,18-19,M,185.97,129.27,229.06,544.31,SBD,Single-ply,5
T. Schott,82.5,Teen 18-19,18-19,M,222.26,113.4,204.12,539.78,SBD,Single-ply,6
Greg Buckwalter,82.5,Teen 18-19,18-19,M,190.51,113.4,235.87,539.78,SBD,Single-ply,7
M. Rothfelder,82.5,Teen 18-19,18-19,M,158.76,142.88,170.1,471.74,SBD,Single-ply,8
C. Lagarue,82.5,Teen 18-19,18-19,M,147.42,104.33,192.78,444.52,SBD,Single-ply,9
J. Barnett,90,Teen 18-19,18-19,M,217.72,122.47,256.28,596.47,SBD,Single-ply,1
Pat Antonecchia,90,Teen 18-19,18-19,M,181.44,136.08,242.67,560.19,SBD,Single-ply,2
B. Russell,90,Teen 18-19,18-19,M,201.85,138.35,215.46,555.65,SBD,Single-ply,3
G. Landis,90,Teen 18-19,18-19,M,154.22,145.15,215.46,514.83,SBD,Single-ply,4
J. Struppe,90,Teen 18-19,18-19,M,136.08,108.86,199.58,444.52,SBD,Single-ply,5
F. Gaziano,100,Teen 18-19,18-19,M,215.46,158.76,254.01,628.23,SBD,Single-ply,1
J. McGowan,100,Teen 18-19,18-19,M,238.14,147.42,217.72,603.28,SBD,Single-ply,2
Tony Ardito,110,Teen 18-19,18-19,M,281.23,174.63,251.74,707.6,SBD,Single-ply,1
Joe Gaziano,110,Teen 18-19,18-19,M,226.8,156.49,276.69,659.98,SBD,Single-ply,2
G. Poletajev,110,Teen 18-19,18-19,M,254.01,167.83,238.14,659.98,SBD,Single-ply,3
M. Yonders,110,Teen 18-19,18-19,M,190.51,131.54,215.46,537.51,SBD,Single-ply,4
M. Bainbirdge,110,Teen 18-19,18-19,M,163.29,124.74,219.99,508.02,SBD,Single-ply,5
Bob Mikulski,125,Teen 18-19,18-19,M,231.33,131.54,265.35,628.23,SBD,Single-ply,1
M. Tomlinson,125+,Teen 18-19,18-19,M,201.85,145.15,204.12,551.12,SBD,Single-ply,1
