Place,Name,CyrillicName,WeightClassKg,Sex,Event,Equipment,Tested,Division,BirthDate,Age,BodyweightKg,Squat1Kg,Squat2Kg,Squat3Kg,Best3SquatKg,Squat4Kg,Bench1Kg,Bench2Kg,Bench3Kg,Best3BenchKg,Bench4Kg,Deadlift1Kg,Deadlift2Kg,Deadlift3Kg,Best3DeadliftKg,Deadlift4Kg,TotalKg
1,Maksim Popov #1,Максим Попов,67.5,M,D,Raw,No,Elite Open,1984-09-03,35,67.3,,,,,,,,,,,265,272.5,-280.5,272.5,,272.5
1,Dmitry Nasonov,Дмитрий Насонов,82.5,M,D,Raw,No,Elite Open,1992-02-13,27,82.4,,,,,,,,,,,340,365,-375,365,,365
2,Pavel Zubkov,Павел Зубков,82.5,M,D,Raw,No,Elite Open,1985-12-22,33,82.1,,,,,,,,,,,315,327.5,-335,327.5,,327.5
3,Kablan Kofi,Каблан Кофи,82.5,M,D,Raw,No,Elite Open,1994-03-15,25,76.7,,,,,,,,,,,270,285,-290,285,,285
4,Evgeniy Gorshkov,Евгений Горшков,82.5,M,D,Raw,No,Elite Open,1981-11-13,37,77.6,,,,,,,,,,,270,-280,280,280,,280
5,Maksim Grekov,Максим Греков,82.5,M,D,Raw,No,Elite Open,1985-09-09,34,79.6,,,,,,,,,,,-270,270,-290,270,,270
DQ,Aram Grigoryan,Арам Григорян,82.5,M,D,Raw,No,Elite Open,1989-12-02,29,79.8,,,,,,,,,,,-290,-290,,,,
1,Ilya Fyodorov,Илья Фёдоров,90,M,D,Raw,No,Elite Open,1992-08-29,27,90,,,,,,,,,,,355,-370,-375,355,,355
2,Sergey Maksimov,Сергей Максимов,90,M,D,Raw,No,Elite Open,1989-07-26,30,89.7,,,,,,,,,,,305,317.5,-330,317.5,,317.5
DQ,Vladimir Babin,Владимир Бабин,90,M,D,Raw,No,Elite Open,1992-08-09,27,86.4,,,,,,,,,,,-347.5,-347.5,-375,,,
1,Evgeniy Kravchenko,Евгений Кравченко,100,M,D,Raw,No,Elite Open,1986-11-03,32,94.6,,,,,,,,,,,350,-375,-375,350,,350
2,Aleksey Ananin,Алексей Ананьин,100,M,D,Raw,No,Elite Open,1976-09-28,43,95.2,,,,,,,,,,,310,-320,-320,310,,310
3,Vitaliy Zheludev,Виталий Желудев,100,M,D,Raw,No,Elite Open,1985-02-09,34,91.3,,,,,,,,,,,300,-310,,300,,300
DQ,Khafiz Verdiev,Хафиз Вердиев,100,M,D,Raw,No,Elite Open,1990-03-04,29,93.6,,,,,,,,,,,-340,-340,-340,,,
DQ,Maksim Karpovich,Максим Карпович,100,M,D,Raw,No,Elite Open,1993-07-13,26,98.9,,,,,,,,,,,-307.5,-307.5,-307.5,,,
1,Mikhail Kim,Михаил Ким,110,M,D,Raw,No,Elite Open,1980-06-20,39,100.7,,,,,,,,,,,360,-385,-385,360,,360
2,Sergey Akhlestin,Сергей Ахлестин,110,M,D,Raw,No,Elite Open,1989-09-15,30,106.8,,,,,,,,,,,340,360,-370,360,,360
3,Sergey Gushchin,Сергей Гущин,110,M,D,Raw,No,Elite Open,1974-11-15,44,101,,,,,,,,,,,-330,330,350,350,-410,350
4,Denis Kurmey,Денис Курмей,110,M,D,Raw,No,Elite Open,1987-10-21,31,107.5,,,,,,,,,,,345,-365,-365,345,,345
5,Bogdan Matiko,Богдан Матико,110,M,D,Raw,No,Elite Open,1992-06-03,27,107.2,,,,,,,,,,,330,340,-355,340,,340
DQ,Vladimir Marchenko,Владимир Марченко,125,M,D,Raw,No,Elite Open,1984-10-19,35,124.6,,,,,,,,,,,-360,-360,-370,,,
1,Aleksandr Lugovoy,Александр Луговой,140,M,D,Raw,No,Elite Open,1995-10-28,23,129.4,,,,,,,,,,,360,-380,380,380,-400,380
DQ,Konstantin Morozov,Константин Морозов,140,M,D,Raw,No,Elite Open,1984-10-23,34,130.3,,,,,,,,,,,-427.5,-427.5,,,,
1,Aleksandr Nosov,Александр Носов,100,M,SBD,Multi-ply,No,Open,1985-01-31,34,96.8,262.5,-277.5,280,280,,197.5,202.5,205,205,,272.5,285,295,295,,780
1,Sergey Mavrenkov,Сергей Мавренков,110,M,SBD,Multi-ply,No,Open,1966-11-05,52,105,290,-310,310,310,,240,-252.5,-252.5,240,,240,255,-265,255,,805
1,Vladimir Fyodorov,Владимир Фёдоров,75,M,SBD,Single-ply,No,Masters 55-59,1962-07-17,57,74,170,-180,180,180,,100,110,-115,110,,195,205,-212.5,205,,495
DQ,Artyom Tarasov,Артём Тарасов,90,M,SBD,Single-ply,No,Open,1992-07-31,27,88.7,-260,-260,-260,,,-150,,,,,-230,,,,,
1,Elena Astakhova,Елена Астахова,75,F,SBD,Wraps,No,Open,1982-04-17,37,70.4,145,150,155,155,,82.5,85,-87.5,85,,170,177.5,-180,177.5,,417.5
1,Evgeniy Remizevich,Евгений Ремизевич,82.5,M,SBD,Wraps,No,Open,1992-03-03,27,79.5,155,-165,-172.5,155,,105,-112.5,115,115,,190,-220,225,225,,495
1,Timur Timurov,Тимур Тимуров,90,M,SBD,Wraps,No,Open,1992-09-09,27,88.8,200,220,230,230,,155,165,-170,165,,210,220,225,225,,620
DQ,Sergey Golosov,Сергей Голосов,90,M,SBD,Wraps,No,Open,1987-08-25,32,88.8,-180,-180,-180,,,-105,,,,,-170,,,,,
1,Vladislav Zolotukhin,Владислав Золотухин,100,M,SBD,Wraps,No,Teen 15-19,2002-01-30,17,95.8,170,180,195,195,,80,87.5,-92.5,87.5,,160,170,-172.5,170,,452.5
1,Aleksandr Yudaev,Александр Юдаев,100,M,SBD,Wraps,No,Open,1994-02-10,25,95.8,275,290,302.5,302.5,,165,175,182.5,182.5,,275,295,305,305,,790
2,Aleksandr Matskevich,Александр Мацкевич,100,M,SBD,Wraps,No,Open,1988-08-26,31,99.6,260,270,280,280,,180,187.5,-192.5,187.5,,295,307.5,315,315,,782.5
1,Kirill Chizhov,Кирилл Чижов,125,M,SBD,Wraps,No,Teen 15-19,2001-05-15,18,116.3,140,160,-170,160,,100,-110,110,110,,150,160,170,170,,440
1,Dinislam Gataev,Динислам Гатаев,67.5,M,SBD,Raw,No,Open,1996-10-23,22,67.4,190,-200,200,200,,145,-150,,145,,240,-250,250,250,,595
DQ,Dmitriy Kabashov,Дмитрий Кабашов,82.5,M,SBD,Raw,No,Juniors 20-23,1996-11-06,22,80.7,-195,200,-205,200,,-150,,,,,-230,,,,,
1,Yakov Stolyarov,Яков Столяров,82.5,M,SBD,Raw,No,Open,1985-05-25,34,78.5,140,160,-180,160,,100,-112.5,112.5,112.5,,190,212.5,217.5,217.5,,490
DQ,Dmitriy Kabashov,Дмитрий Кабашов,82.5,M,SBD,Raw,No,Open,1996-11-06,22,80.7,-195,200,-205,200,,-150,,,,,-230,,,,,
1,Roman Khomenko,Роман Хоменко,90,M,SBD,Raw,No,Open,1996-10-22,22,89.1,225,232.5,237.5,237.5,,135,142.5,150,150,,270,280,-287.5,280,,667.5
2,Zhavokhir Askaraliev,Жавохир Аскаралиев,90,M,SBD,Raw,No,Open,1993-12-29,25,89.2,-210,210,225,225,,170,-180,-180,170,,260,-270,,260,,655
1,Aleksandr Dvortsov,Александр Дворцов,100,M,SBD,Raw,No,Open,1981-07-09,38,100,225,245,-255,245,,160,170,-175,170,,260,270,280,280,,695
2,Konstantin Sapunkov,Константин Сапунков,100,M,SBD,Raw,No,Open,1981-09-02,38,97.7,235,245,255,255,,150,160,172.5,172.5,,245,-260,,245,,672.5
1,Roman Korotchenkov,Роман Коротченков,100,M,SBD,Raw,No,Masters 40-44,1978-07-30,41,95.1,200,-210,-215,200,,160,165,-170,165,,220,230,-235,230,,595
1,Aleksey Fedorenko,Алексей Федоренко,125,M,SBD,Raw,No,Juniors 20-23,1996-06-02,23,119,230,245,260,260,,190,200,205,205,,280,300,-310,300,,765
1,Aleksey Fedorenko,Алексей Федоренко,125,M,SBD,Raw,No,Open,1996-06-02,23,119,230,245,260,260,,190,200,205,205,,280,300,-310,300,,765
2,Nikolay Markin,Николай Маркин,125,M,SBD,Raw,No,Open,1981-03-14,38,122.4,210,230,255,255,,155,165,180,180,,260,270,-280,270,,705
1,Vladimir Kulakov,Владимир Кулаков,75,M,B,Single-ply,No,Open,1955-12-24,63,73.6,,,,,,80,87.5,,87.5,,,,,,,87.5
1,Vladimir Kulakov,Владимир Кулаков,75,M,B,Single-ply,No,Masters 60-64,1955-12-24,63,73.6,,,,,,80,87.5,,87.5,,,,,,,87.5
1,Aleksandr Shabrov,Александр Шабров,90,M,B,Single-ply,No,Open,1991-02-07,28,88.6,,,,,,210,-217.5,-217.5,210,,,,,,,210
1,Vyacheslav Nechpal,Вячеслав Нечпал,100,M,B,Single-ply,No,Open,1973-07-02,46,94.4,,,,,,240,-250,-250,240,,,,,,,240
DQ,Konstantin Sapunkov,Константин Сапунков,100,M,B,Single-ply,No,Open,1981-09-02,38,97.7,,,,,,-230,,,,,,,,,,
1,Vyacheslav Nechpal,Вячеслав Нечпал,100,M,B,Single-ply,No,Masters 45-49,1973-07-02,46,94.4,,,,,,240,-250,-250,240,,,,,,,240
1,Roman Brekhov,Роман Брехов,110,M,B,Single-ply,No,Open,1990-02-24,29,108.3,,,,,,262.5,-277.5,-277.5,262.5,,,,,,,262.5
DQ,Marat Abdullin,Марат Абдуллин,110,M,B,Single-ply,No,Open,1985-07-21,34,105.2,,,,,,-320,-320,-320,,,,,,,,
1,Aleksandr Rystsov,Александр Рысцов,125,M,B,Single-ply,No,Open,1979-12-02,39,113.3,,,,,,265,272.5,-280,272.5,,,,,,,272.5
DQ,Vladimir Peshko,Владимир Пешко,125,M,B,Single-ply,No,Open,1970-02-12,49,115.4,,,,,,-265,-265,-265,,,,,,,,
DQ,Vladimir Peshko,Владимир Пешко,125,M,B,Single-ply,No,Masters 45-49,1970-02-12,49,115.4,,,,,,-265,-265,-265,,,,,,,,
1,Dmitriy Shabalin,Дмитрий Шабалин,140,M,B,Single-ply,No,Masters 50-54,1969-01-19,50,132.7,,,,,,305,-315,-315,305,,,,,,,305
1,Irina Yakovleva,Ирина Яковлева,82.5,F,B,Raw,No,Open,1970-01-08,49,77.3,,,,,,115,120,-125,120,,,,,,,120
1,Aleksey Bespelyukhin,Алексей Беспелюхин,75,M,B,Raw,No,Teen 15-19,2003-10-01,16,69.3,,,,,,90,100,102.5,102.5,,,,,,,102.5
1,Aleksandr Rumyantsev,Александр Румянцев,75,M,B,Raw,No,Open,1991-06-26,28,73.4,,,,,,90,110,-115,110,,,,,,,110
1,Vladimir Kulakov,Владимир Кулаков,75,M,B,Raw,No,Masters 60-64,1955-12-24,63,73.6,,,,,,80,85,-87.5,85,,,,,,,85
1,Nikolay Ionov,Николай Ионов,75,M,B,Raw,No,Masters 70-74,1949-05-20,70,71.9,,,,,,85,95,100,100,,,,,,,100
1,Dmitriy Dymura,Дмитрий Дымура,82.5,M,B,Raw,No,Teen 15-19,2002-10-09,17,77.4,,,,,,110,120,-130,120,,,,,,,120
2,Dildar Magerramov,Дилдар Магеррамов,82.5,M,B,Raw,No,Teen 15-19,2002-03-23,17,81.5,,,,,,90,100,-102.5,100,,,,,,,100
1,Maksim Raspopov,Максим Распопов,82.5,M,B,Raw,No,Open,1992-07-11,27,79.8,,,,,,132.5,140,145,145,,,,,,,145
1,Nikolay Petrokovich,Николай Петрокович,82.5,M,B,Raw,No,Masters 40-44,1979-08-17,40,81,,,,,,110,-115,-120,110,,,,,,,110
1,Pavel Popovskiy,Павел Поповский,90,M,B,Raw,No,Juniors 20-23,1999-06-01,20,83.3,,,,,,-90,95,-102.5,95,,,,,,,95
1,Maksim Petrichenko,Максим Петриченко,90,M,B,Raw,No,Open,1987-05-31,32,86,,,,,,170,175,180,180,,,,,,,180
2,Evgeniy Sidorov,Евгений Сидоров,90,M,B,Raw,No,Open,1983-07-15,36,89,,,,,,155,165,-170,165,,,,,,,165
3,Aleksandr Arestov,Александр Арестов,90,M,B,Raw,No,Open,1986-06-08,33,87.9,,,,,,155,-165,-170,155,,,,,,,155
1,Amir Khusnetdinov,Амир Хуснетдинов,90,M,B,Raw,No,Masters 70-74,1948-03-01,71,86.3,,,,,,105,115,120,120,,,,,,,120
1,Aleksey Evteev,Алексей Евтеев,100,M,B,Raw,No,Open,1994-08-08,25,99.5,,,,,,217.5,222.5,-230,222.5,,,,,,,222.5
2,Beymurad Murzabekov,Беймурад Мурзабеков,100,M,B,Raw,No,Open,1988-09-06,31,91.3,,,,,,150,160,170,170,,,,,,,170
3,Sergey Gonchar,Сергей Гончар,100,M,B,Raw,No,Open,1989-06-14,30,99.2,,,,,,130,140,145,145,,,,,,,145
1,Sergey Lisitsyn,Сергей Лисицын,110,M,B,Raw,No,Open,1970-10-26,48,108.1,,,,,,195,202.5,207.5,207.5,,,,,,,207.5
2,Vladimir Kudelin,Владимир Куделин,110,M,B,Raw,No,Open,1987-01-17,32,107.5,,,,,,190,197.5,-205,197.5,,,,,,,197.5
1,Erik Mynka,Эрик Мынка,125,M,B,Raw,No,Juniors 20-23,1996-07-14,23,114.4,,,,,,205,-215,215,215,,,,,,,215
1,Vitaliy Vasilev,Виталий Васильев,125,M,B,Raw,No,Open,1994-07-11,25,115.8,,,,,,190,-200,-205,190,,,,,,,190
2,Evgeniy Bazanov,Евгений Базанов,125,M,B,Raw,No,Open,1991-08-01,28,125,,,,,,172.5,180,-192.5,180,,,,,,,180
1,Oleg Mordvintsev,Олег Мордвинцев,125,M,B,Raw,No,Masters 45-49,1973-03-21,46,117.6,,,,,,150,-165,-165,150,,,,,,,150
1,Vladimir Fyodorov,Владимир Фёдоров,75,M,D,Single-ply,No,Masters 55-59,1962-07-17,57,74,,,,,,,,,,,200,-212.5,,200,,200
1,Natalya Safarova,Наталья Сафарова,75,F,D,Raw,No,Open,1988-05-03,31,74.9,,,,,,,,,,,180,190,,190,,190
1,Matvey Loginov,Матвей Логинов,60,M,D,Raw,No,Teen 15-19,2003-03-02,16,58.8,,,,,,,,,,,90,107.5,115,115,,115
1,Dalgat Gadzhiakhmedov,Далгат Гаджиахмедов,75,M,D,Raw,No,Open,1987-06-18,32,74.7,,,,,,,,,,,232.5,240,-245,240,,240
1,Aleksandr Likholai,Александр Лихолай,75,M,D,Raw,No,Masters 80+,1939-02-22,80,74.2,,,,,,,,,,,105,115,-125,115,,115
1,Pavel Eliseev,Павел Елисеев,82.5,M,D,Raw,No,Open,1986-01-29,33,76.8,,,,,,,,,,,255,-275,-275,255,,255
2,Aleksandr Sergeev,Александр Сергеев,82.5,M,D,Raw,No,Open,1984-08-18,35,81.3,,,,,,,,,,,200,220,225,225,,225
1,Konstantin Sapunkov,Константин Сапунков,100,M,D,Raw,No,Open,1981-09-02,38,97.7,,,,,,,,,,,245,-260,,245,,245
1,Andrey Novikov,Андрей Новиков,110,M,D,Raw,No,Open,1987-07-30,32,105.8,,,,,,,,,,,265,282.5,300,300,,300
1,Nikolay Markin,Николай Маркин,125,M,D,Raw,No,Open,1981-03-14,38,122.4,,,,,,,,,,,260,270,-280,270,,270
1,Vadim Kiryushkin,Вадим Кирюшкин,140,M,D,Raw,No,Masters 40-44,1976-01-13,43,132,,,,,,,,,,,287.5,300,302.5,302.5,,302.5
1,Viktor Yashin,Виктор Яшин,90,M,SBD,Single-ply,Yes,Open,1989-10-29,29,83.8,215,245,-250,245,,140,150,155,155,,200,-217.5,-217.5,200,,600
1,Natalya Levenkova,Наталья Левенкова,56,F,SBD,Wraps,Yes,Open,1988-09-16,31,54.7,110,120,125,125,,57.5,60,62.5,62.5,,135,142.5,147.5,147.5,,335
2,Oksana Fatkina,Оксана Фатькина,56,F,SBD,Wraps,Yes,Open,1973-04-25,46,53.9,85,92.5,100,100,,50,52.5,55,55,,95,105,-115,105,,260
1,Oksana Fatkina,Оксана Фатькина,56,F,SBD,Wraps,Yes,Masters 45-49,1973-04-25,46,53.9,85,92.5,100,100,,50,52.5,55,55,,95,105,-115,105,,260
1,Ekaterina Lomakina,Екатерина Ломакина,60,F,SBD,Wraps,Yes,Open,1984-03-23,35,58.6,-70,70,75,75,,40,42.5,-45,42.5,,80,85,90,90,,207.5
1,Alina Ryzhova,Алина Рыжова,67.5,F,SBD,Wraps,Yes,Juniors 20-23,1996-03-27,23,64.5,100,110,120,120,,47.5,-52.5,-52.5,47.5,,90,102.5,-110,102.5,,270
1,Alina Ryzhova,Алина Рыжова,67.5,F,SBD,Wraps,Yes,Open,1996-03-27,23,64.5,100,110,120,120,,47.5,-52.5,-52.5,47.5,,90,102.5,-110,102.5,,270
1,Ekaterina Vasileva,Екатерина Васильева,75,F,SBD,Wraps,Yes,Masters 40-44,1976-09-07,43,72.5,120,-125,-125,120,,55,-60,,55,,140,145,-147.5,145,,320
1,Elena Lopatina,Елена Лопатина,75,F,SBD,Wraps,Yes,Masters 50-54,1967-04-05,52,73.3,-90,90,-105,90,,50,55,60,60,,110,120,-135,120,,270
1,Anastasiya Loginova,Анастасия Логинова,90,F,SBD,Wraps,Yes,Open,1995-04-04,24,83.5,90,100,110,110,,52.5,57.5,-62.5,57.5,,100,110,-120,110,,277.5
1,Daniil Vtorushin,Даниил Вторушин,82.5,M,SBD,Wraps,Yes,Open,1995-10-17,24,81,165,175,185,185,,145,152.5,-157.5,152.5,,200,215,-230,215,,552.5
1,Ilya Belov,Илья Белов,90,M,SBD,Wraps,Yes,Open,1989-12-26,29,89.6,222.5,232.5,-237.5,232.5,,145,152.5,157.5,157.5,,210,222.5,230,230,,620
2,Vitaliy Tarasov,Виталий Тарасов,90,M,SBD,Wraps,Yes,Open,1977-06-09,42,87.5,200,230,-250,230,,135,140,145,145,,210,220,227.5,227.5,,602.5
3,Sergey Ryakhovskiy,Сергей Ряховский,90,M,SBD,Wraps,Yes,Open,1982-04-03,37,84.6,-150,-150,150,150,,-135,-135,135,135,,-200,200,-205,200,,485
1,Vitaliy Tarasov,Виталий Тарасов,90,M,SBD,Wraps,Yes,Masters 40-44,1977-06-09,42,87.5,200,230,-250,230,,135,140,145,145,,210,220,227.5,227.5,,602.5
2,Ivan Ogorodnikov,Иван Огородников,90,M,SBD,Wraps,Yes,Masters 40-44,1977-11-14,41,86.8,150,160,165,165,,90,95,100,100,,150,160,170,170,,435
1,Vladimir Arkhandeev,Владимир Архандеев,90,M,SBD,Wraps,Yes,Masters 60-64,1955-01-26,64,86.1,-150,150,160,160,,110,-115,-115,110,,-160,160,170,170,,440
1,Roman Safronov,Роман Сафронов,100,M,SBD,Wraps,Yes,Open,1989-08-04,30,97.9,-217.5,-217.5,227.5,227.5,-232.5,135,-140,140,140,,-220,-220,220,220,,587.5
1,Evgeniy Mikhaylov,Евгений Михайлов,100,M,SBD,Wraps,Yes,Masters 40-44,1977-06-23,42,98.6,200,-220,-220,200,,140,-150,150,150,,190,200,205,205,,555
DQ,Vadim Terskikh,Вадим Терских,110,M,SBD,Wraps,Yes,Masters 40-44,1978-04-20,41,108.2,-200,200,-220,200,,-125,-125,,,,-240,,,,,
1,Andrey Drozhzhin,Андрей Дрожжин,125,M,SBD,Wraps,Yes,Open,1977-11-21,41,118.6,250,275,295,295,,160,180,190,190,,240,260,-280,260,,745
2,Vasiliy Perepichay,Василий Перепичай,125,M,SBD,Wraps,Yes,Open,1981-02-27,38,124.1,-235,237.5,250,250,,170,177.5,-185,177.5,,245,255,-265,255,,682.5
3,Ivan Rak,Иван Рак,125,M,SBD,Wraps,Yes,Open,1974-08-27,45,117.2,240,250,260,260,,145,152.5,160,160,,230,240,250,250,,670
1,Ivan Rak,Иван Рак,125,M,SBD,Wraps,Yes,Masters 45-49,1974-08-27,45,117.2,240,250,260,260,,145,152.5,160,160,,230,240,250,250,,670
1,Ekaterina Suchkova,Екатерина Сучкова,44,F,SBD,Raw,Yes,Juniors 20-23,1997-05-15,22,42,62.5,67.5,72.5,72.5,,32.5,35,-40,35,,90,100,-105,100,,207.5
1,Yaroslava Karpukhina,Ярослава Карпухина,48,F,SBD,Raw,Yes,Open,1994-10-05,25,47.6,82.5,90,-95,90,,37.5,42.5,47.5,47.5,,92.5,102.5,110,110,,247.5
2,Viktoriya Zabodaeva,Виктория Забодаева,48,F,SBD,Raw,Yes,Open,1995-08-31,24,48,30,40,50,50,,25,-35,-35,25,,30,45,55,55,,130
1,Alisa Lukmanova,Алиса Лукманова,52,F,SBD,Raw,Yes,Open,1992-01-25,27,51.6,75,-85,85,85,,45,-50,50,50,,90,110,-115,110,,245
1,Marina Kamyshnikova,Марина Камышникова,56,F,SBD,Raw,Yes,Open,1979-02-16,40,56,90,95,100,100,,55,60,-62.5,60,,120,130,135,135,,295
2,Anastasiya Popova,Анастасия Попова,56,F,SBD,Raw,Yes,Open,1992-05-09,27,54.8,75,85,-92.5,85,,37.5,40,45,45,,85,92.5,-97.5,92.5,,222.5
3,Ekaterina Krasutskaya,Екатерина Красуцкая,56,F,SBD,Raw,Yes,Open,1988-02-25,31,55.5,70,77.5,-80,77.5,,40,-45,-45,40,,-85,85,-90,85,,202.5
1,Marina Kamyshnikova,Марина Камышникова,56,F,SBD,Raw,Yes,Masters 40-44,1979-02-16,40,56,90,95,100,100,,55,60,-62.5,60,,120,130,135,135,,295
1,Alena Semerozumenko,Алена Семерозуменко,60,F,SBD,Raw,Yes,Teen 15-19,2000-09-11,19,60,50,60,-70,60,,60,67.5,-72.5,67.5,,80,-90,-90,80,,207.5
1,Mariya Yakushina,Мария Якушина,60,F,SBD,Raw,Yes,Open,1990-10-14,29,60,100,110,-120,110,,50,-60,60,60,,80,115,120,120,,290
2,Anastasiya Nefedova,Анастасия Нефедова,60,F,SBD,Raw,Yes,Open,1987-06-01,32,58.4,60,70,75,75,,32.5,37.5,-40,37.5,,75,-87.5,-87.5,75,,187.5
1,Nina Romanova,Нина Романова,82.5,F,SBD,Raw,Yes,Masters 40-44,1978-05-19,41,80.1,-100,100,120,120,,80,-85,-85,80,,140,155,-160,155,,355
1,Dmitriy Khodkin,Дмитрий Ходкин,75,M,SBD,Raw,Yes,Teen 15-19,2002-12-20,16,73.2,100,110,115,115,,70,80,-90,80,,130,140,150,150,,345
1,Vladimir Vologuzov,Владимир Вологузов,82.5,M,SBD,Raw,Yes,Teen 15-19,2000-10-23,18,79.3,125,135,142.5,142.5,,87.5,92.5,,92.5,,160,177.5,185,185,,420
1,Oleg Chernov,Олег Чернов,82.5,M,SBD,Raw,Yes,Open,1986-06-04,33,81.9,180,190,-200,190,,105,110,115,115,,190,202.5,-215,202.5,,507.5
2,Aleksey Lobodin,Алексей Лободин,82.5,M,SBD,Raw,Yes,Open,1988-08-20,31,82.1,150,165,175,175,,112.5,122.5,-130,122.5,,150,175,-187.5,175,,472.5
3,Aleksey Bulatov,Алексей Булатов,82.5,M,SBD,Raw,Yes,Open,1986-01-09,33,81.3,-147.5,-147.5,147.5,147.5,,100,-107.5,-107.5,100,,165,-177.5,-182.5,165,,412.5
1,Razif Valiakhmetov,Разиф Валиахметов,82.5,M,SBD,Raw,Yes,Masters 60-64,1959-09-15,60,80,160,165,172.5,172.5,,100,105,-107.5,105,,180,185,190,190,,467.5
1,Artyom Sigachev,Артём Сигачев,90,M,SBD,Raw,Yes,Teen 15-19,2003-08-16,16,88.7,140,152.5,165,165,,80,90,95,95,,160,-175,185,185,-202.5,445
1,Ivan Tsaryov,Иван Царёв,90,M,SBD,Raw,Yes,Open,1985-01-29,34,87.5,210,220,225,225,,135,145,150,150,,220,230,-240,230,,605
1,Oleg Trunov,Олег Трунов,100,M,SBD,Raw,Yes,Open,1988-08-08,31,95.9,210,220,-230,220,,160,-170,-170,160,,220,230,240,240,,620
2,Aleksandr Polukhin,Александр Полухин,100,M,SBD,Raw,Yes,Open,1983-06-29,36,100,155,170,182.5,182.5,,155,170,-180,170,,167.5,190,-212.5,190,,542.5
3,Artyom Marchenko,Артём Марченко,100,M,SBD,Raw,Yes,Open,1988-09-21,31,97.9,140,150,165,165,,110,117.5,122.5,122.5,,190,205,-215,205,,492.5
1,Sergey Tretyakov,Сергей Третьяков,100,M,SBD,Raw,Yes,Masters 40-44,1978-08-17,41,94.3,-140,140,155,155,,127.5,132.5,137.5,137.5,,180,190,-195,190,,482.5
1,Aleksandr Frolov,Александр Фролов,140,M,SBD,Raw,Yes,Open,1988-01-17,31,126.2,140,150,-160,150,,145,155,165,165,,140,155,170,170,,485
1,Daniil Krasnobaev,Даниил Краснобаев,75,M,B,Multi-ply,Yes,Open,1981-05-18,38,75,,,,,,140,152.5,-165,152.5,,,,,,,152.5
1,Arina Podgornova,Арина Подгорнова,67.5,M,B,Single-ply,Yes,Teen 15-19,2002-03-11,17,61.9,,,,,,65,70,77.5,77.5,,,,,,,77.5
1,Artem Larionov,Артем Ларионов,75,M,B,Single-ply,Yes,Open,1978-05-14,41,74.6,,,,,,205,-210,-210,205,,,,,,,205
1,Andrey Ignatov,Андрей Игнатов,100,M,B,Single-ply,Yes,Open,1992-02-22,27,97.9,,,,,,240,-250,-250,240,,,,,,,240
1,Mikhail Litovskiy,Михаил Литовский,110,M,B,Single-ply,Yes,Open,1993-01-16,26,103.4,,,,,,170,180,-192.5,180,,,,,,,180
2,Mikhail Yarlykov,Михаил Ярлыков,110,M,B,Single-ply,Yes,Open,1989-02-22,30,107.9,,,,,,170,180,-192.5,180,,,,,,,180
1,Oksana Gribakho,Оксана Грибахо,48,F,B,Raw,Yes,Open,1990-12-30,28,47.1,,,,,,47.5,50,52.5,52.5,,,,,,,52.5
2,Ekaterina Bazhina,Екатерина Бажина,48,F,B,Raw,Yes,Open,1983-04-04,36,48,,,,,,50,52.5,-55,52.5,,,,,,,52.5
3,Viktoriya Zabodaeva,Виктория Забодаева,48,F,B,Raw,Yes,Open,1995-08-31,24,48,,,,,,25,-35,-35,25,,,,,,,25
1,Natalya Levenkova,Наталья Левенкова,56,F,B,Raw,Yes,Open,1988-09-16,31,54.7,,,,,,57.5,60,62.5,62.5,,,,,,,62.5
2,Darya Davydenko,Дарья Давыденко,56,F,B,Raw,Yes,Open,1984-04-29,35,55.1,,,,,,30,32.5,-35,32.5,,,,,,,32.5
1,Marina Kamyshnikova,Марина Камышникова,56,F,B,Raw,Yes,Masters 40-44,1979-02-16,40,56,,,,,,55,60,-62.5,60,,,,,,,60
1,Anna Filippova,Анна Филиппова,60,F,B,Raw,Yes,Open,1979-10-05,40,58.3,,,,,,62.5,-67.5,-67.5,62.5,,,,,,,62.5
1,Elena Medvedeva,Елена Медведева,60,F,B,Raw,Yes,Masters 55-59,1962-10-10,57,59,,,,,,52.5,-55,-55,52.5,,,,,,,52.5
1,Olga Baranova,Ольга Баранова,75,F,B,Raw,Yes,Masters 40-44,1976-05-21,43,69.5,,,,,,60,62.5,65,65,,,,,,,65
1,Nina Romanova,Нина Романова,82.5,F,B,Raw,Yes,Masters 40-44,1978-05-19,41,80.1,,,,,,80,-85,-85,80,,,,,,,80
1,Rodion Savrasov,Родион Саврасов,56,M,B,Raw,Yes,Teen 15-19,2004-02-05,15,56,,,,,,80,-85,85,85,,,,,,,85
1,Aleksey Brus,Алексей Брус,56,M,B,Raw,Yes,Open,1993-06-29,26,56,,,,,,85,-92.5,-92.5,85,,,,,,,85
1,Yaroslav Fatkin,Ярослав Фатькин,67.5,M,B,Raw,Yes,Teen 15-19,2000-08-24,19,65.5,,,,,,85,92.5,-95,92.5,,,,,,,92.5
1,Igor Zlobin,Игорь Злобин,67.5,M,B,Raw,Yes,Masters 50-54,1966-03-17,53,66.6,,,,,,97.5,-102.5,-102.5,97.5,,,,,,,97.5
1,Dmitriy Khodkin,Дмитрий Ходкин,75,M,B,Raw,Yes,Teen 15-19,2002-12-20,16,73.2,,,,,,70,80,-90,80,,,,,,,80
1,Vadim Sakharnyuk,Вадим Сахарнюк,75,M,B,Raw,Yes,Open,1981-11-07,37,74.9,,,,,,140,145,147.5,147.5,,,,,,,147.5
2,Aleksandr Manaenkov,Александр Манаенков,75,M,B,Raw,Yes,Open,1992-04-19,27,74.6,,,,,,132.5,137.5,-142.5,137.5,,,,,,,137.5
3,Anton Bukhantsev,Антон Буханцев,75,M,B,Raw,Yes,Open,1991-06-22,28,73.5,,,,,,122.5,-127.5,-132.5,122.5,,,,,,,122.5
4,Sergey Guryanov,Сергей Гурьянов,75,M,B,Raw,Yes,Open,1990-12-16,28,74,,,,,,120,-125,-125,120,,,,,,,120
5,Nikolay Pekarskiy,Николай Пекарский,75,M,B,Raw,Yes,Open,1989-12-16,29,75,,,,,,105,-112.5,-112.5,105,,,,,,,105
1,Aleksey Shalunov,Алексей Шалунов,75,M,B,Raw,Yes,Masters 50-54,1969-07-24,50,73.2,,,,,,120,122.5,125,125,,,,,,,125
1,Denis Emilyanovich,Денис Эмильянович,82.5,M,B,Raw,Yes,Juniors 20-23,1997-06-18,22,81.2,,,,,,140,147.5,152.5,152.5,,,,,,,152.5
2,Kirill Stepanov,Кирилл Степанов,82.5,M,B,Raw,Yes,Juniors 20-23,1998-06-16,21,79.6,,,,,,140,145,150,150,,,,,,,150
1,Dmitriy Dobudko,Дмитрий Добудько,82.5,M,B,Raw,Yes,Open,1982-10-07,37,79.1,,,,,,150,162.5,-165,162.5,,,,,,,162.5
2,Igor Startsev,Игорь Старцев,82.5,M,B,Raw,Yes,Open,1983-03-14,36,81.8,,,,,,155,-165,-165,155,,,,,,,155
3,Konstantin Fursov,Константин Фурсов,82.5,M,B,Raw,Yes,Open,1983-11-12,35,79.7,,,,,,122.5,130,-135,130,,,,,,,130
4,Aleksey Lobodin,Алексей Лободин,82.5,M,B,Raw,Yes,Open,1988-08-20,31,82.1,,,,,,125,130,-132.5,130,,,,,,,130
DQ,Ravil Batrov,Равиль Батров,82.5,M,B,Raw,Yes,Open,1989-06-05,30,82.5,,,,,,-142.5,-142.5,,,,,,,,,
1,Aleksey Kuznetsov,Алексей Кузнецов,82.5,M,B,Raw,Yes,Masters 40-44,1979-04-14,40,81.2,,,,,,140,145,-147.5,145,,,,,,,145
2,Aleksandr Semenov,Александр Семенов,82.5,M,B,Raw,Yes,Masters 40-44,1977-02-03,42,81.4,,,,,,132.5,-137.5,-137.5,132.5,,,,,,,132.5
DQ,Aleksey Parfenkov,Алексей Парфенков,82.5,M,B,Raw,Yes,Masters 40-44,1976-12-30,42,82.2,,,,,,-137.5,-142.5,-142.5,,,,,,,,
1,Sergey Kondrashev,Сергей Кондрашев,82.5,M,B,Raw,Yes,Masters 55-59,1963-09-16,56,81.5,,,,,,120,125,-132.5,125,,,,,,,125
1,Oleg Khugaev,Олег Хугаев,90,M,B,Raw,Yes,Teen 15-19,2000-04-14,19,83.6,,,,,,100,-105,105,105,,,,,,,105
1,Aleksandr Yarets,Александр Ярец,90,M,B,Raw,Yes,Open,1992-02-29,27,86.5,,,,,,155,165,-177.5,165,,,,,,,165
2,Aleksey Ryazhskikh,Алексей Ряжских,90,M,B,Raw,Yes,Open,1990-09-15,29,89.4,,,,,,140,142.5,-145,142.5,,,,,,,142.5
3,Roman Tovpeko,Роман Товпеко,90,M,B,Raw,Yes,Open,1981-03-13,38,89.9,,,,,,142.5,-147.5,-147.5,142.5,,,,,,,142.5
DQ,Evgeniy Komissarov,Евгений Комиссаров,90,M,B,Raw,Yes,Open,1991-04-02,28,87,,,,,,-150,-150,,,,,,,,,
1,Nikita Mizonov,Никита Мизонов,100,M,B,Raw,Yes,Juniors 20-23,1999-05-22,20,94.8,,,,,,127.5,132.5,-137.5,132.5,,,,,,,132.5
1,Sergey Ovcharov,Сергей Овчаров,100,M,B,Raw,Yes,Open,1979-08-14,40,94.1,,,,,,180,185,-190,185,,,,,,,185
2,Anton Tarasov,Антон Тарасов,100,M,B,Raw,Yes,Open,1986-11-09,32,99.7,,,,,,165,170,,170,,,,,,,170
3,Aleksandr Zotov,Александр Зотов,100,M,B,Raw,Yes,Open,1986-05-13,33,97.4,,,,,,157.5,-165,165,165,,,,,,,165
1,Sergey Ovcharov,Сергей Овчаров,100,M,B,Raw,Yes,Masters 40-44,1979-08-14,40,94.1,,,,,,180,185,-190,185,,,,,,,185
2,Sergey Maksimov,Сергей Максимов,100,M,B,Raw,Yes,Masters 40-44,1975-09-15,44,99.9,,,,,,165,170,-175,170,,,,,,,170
3,Andrey Bragin,Андрей Брагин,100,M,B,Raw,Yes,Masters 40-44,1976-05-07,43,96.9,,,,,,140,145,150,150,,,,,,,150
DQ,Maksim Bashkevich,Максим Башкевич,100,M,B,Raw,Yes,Masters 40-44,1975-09-02,44,97.3,,,,,,-160,-165,-165,,,,,,,,
1,Roman Kanishchev,Роман Канищев,100,M,B,Raw,Yes,Masters 45-49,1973-09-05,46,98.6,,,,,,145,150,152.5,152.5,,,,,,,152.5
1,Vitaliy Smirnov,Виталий Смирнов,110,M,B,Raw,Yes,Open,1981-05-24,38,100.2,,,,,,165,172.5,175,175,,,,,,,175
2,Maksim Zyukin,Максим Зюкин,110,M,B,Raw,Yes,Open,1985-09-15,34,107.4,,,,,,165,170,-172.5,170,,,,,,,170
DQ,Oleg Kovalenko,Олег Коваленко,110,M,B,Raw,Yes,Open,1985-07-29,34,104.7,,,,,,-132.5,-132.5,-132.5,,,,,,,,
DQ,Artem Mazurin,Артем Мазурин,110,M,B,Raw,Yes,Open,1988-06-29,31,107.6,,,,,,-140,-150,-150,,,,,,,,
1,Kirill Kharabadze,Кирилл Харабадзе,110,M,B,Raw,Yes,Masters 45-49,1972-06-25,47,108,,,,,,160,165,-170,165,,,,,,,165
1,Valeriy Kondratev,Валерий Кондратьев,110,M,B,Raw,Yes,Masters 55-59,1964-01-15,55,106.2,,,,,,135,140,150,150,,,,,,,150
1,Oleg Zhigarev,Олег Жигарев,125,M,B,Raw,Yes,Juniors 20-23,1997-09-06,22,122.4,,,,,,140,155,-160,155,,,,,,,155
1,Georgiy Khachatryan,Георгий Хачатрян,125,M,B,Raw,Yes,Open,1986-07-23,33,116.8,,,,,,175,185,-195,185,,,,,,,185
2,Vladimir Seleznev,Владимир Селезнев,125,M,B,Raw,Yes,Open,1977-05-09,42,122.4,,,,,,175,180,-185,180,,,,,,,180
1,Vladimir Seleznev,Владимир Селезнев,125,M,B,Raw,Yes,Masters 40-44,1977-05-09,42,122.4,,,,,,175,180,-185,180,,,,,,,180
1,Vladimir Chubarov,Владимир Чубаров,125,M,B,Raw,Yes,Masters 55-59,1964-04-03,55,124.2,,,,,,162.5,170,175,175,,,,,,,175
1,Artem Filatov,Артем Филатов,140,M,B,Raw,Yes,Open,1986-09-26,33,136.7,,,,,,155,165,-175,165,,,,,,,165
1,Sergey Kanygin,Сергей Каныгин,140,M,B,Raw,Yes,Masters 50-54,1966-01-24,53,139.2,,,,,,180,190,195,195,200,,,,,,195
DD,Kirill Komarov,Кирилл Комаров,140+,M,B,Raw,Yes,Open,1989-04-10,30,154.5,,,,,,-200,210,-220,210,,,,,,,
1,Nikolay Pankov,Николай Панков,110,M,D,Single-ply,Yes,Juniors 20-23,1996-07-17,23,106.8,,,,,,,,,,,230,250,-260,250,,250
1,Viktoriya Zabodaeva,Виктория Забодаева,48,F,D,Raw,Yes,Open,1995-08-31,24,48,,,,,,,,,,,30,45,55,55,,55
1,Viktoriya Staroverova,Виктория Староверова,56,F,D,Raw,Yes,Juniors 20-23,1996-08-02,23,54.9,,,,,,,,,,,107.5,-125,-125,107.5,,107.5
1,Natalya Levenkova,Наталья Левенкова,56,F,D,Raw,Yes,Open,1988-09-16,31,54.7,,,,,,,,,,,135,142.5,147.5,147.5,,147.5
DQ,Mariya Petropavlova,Мария Петропавлова,56,F,D,Raw,Yes,Open,1994-06-30,25,55,,,,,,,,,,,-90,,,,,
1,Marina Kamyshnikova,Марина Камышникова,56,F,D,Raw,Yes,Masters 40-44,1979-02-16,40,56,,,,,,,,,,,120,130,135,135,,135
1,Polina Barinova,Полина Баринова,60,F,D,Raw,Yes,Juniors 20-23,1998-11-15,20,58.7,,,,,,,,,,,122.5,127.5,130,130,,130
1,Yuliya Belova,Юлия Белова,60,F,D,Raw,Yes,Open,1988-04-02,31,58.8,,,,,,,,,,,102.5,112.5,117.5,117.5,,117.5
2,Anastasiya Nefedova,Анастасия Нефедова,60,F,D,Raw,Yes,Open,1987-06-01,32,58.4,,,,,,,,,,,75,-87.5,-87.5,75,,75
1,Olesya Starova,Олеся Старова,82.5,F,D,Raw,Yes,Teen 15-19,2000-09-29,19,80.5,,,,,,,,,,,130,135,140,140,,140
1,Dmitriy Khodkin,Дмитрий Ходкин,75,M,D,Raw,Yes,Teen 15-19,2002-12-20,16,73.2,,,,,,,,,,,130,140,150,150,,150
1,Sergey Kashirin,Сергей Каширин,75,M,D,Raw,Yes,Open,1983-11-06,35,72.5,,,,,,,,,,,202.5,207.5,215,215,,215
2,Pavel Barkovskiy,Павел Барковский,75,M,D,Raw,Yes,Open,1988-07-23,31,73.2,,,,,,,,,,,190,207.5,-215,207.5,,207.5
3,Sergey Guryanov,Сергей Гурьянов,75,M,D,Raw,Yes,Open,1990-12-16,28,74,,,,,,,,,,,180,,,180,,180
4,Vladimir Zhevtunov,Владимир Жевтунов,75,M,D,Raw,Yes,Open,1988-05-11,31,73.5,,,,,,,,,,,150,160,-165,160,,160
1,Mikhail Antoch,Михаил Анточ,82.5,M,D,Raw,Yes,Open,1992-10-26,26,82.3,,,,,,,,,,,240,260,262.5,262.5,,262.5
2,Igor Startsev,Игорь Старцев,82.5,M,D,Raw,Yes,Open,1983-03-14,36,81.5,,,,,,,,,,,-260,260,-270,260,,260
3,Aleksey Lobodin,Алексей Лободин,82.5,M,D,Raw,Yes,Open,1988-08-20,31,82.1,,,,,,,,,,,177.5,-187.5,187.5,187.5,,187.5
1,Aleksey Gvozdev,Алексей Гвоздев,82.5,M,D,Raw,Yes,Masters 45-49,1972-03-27,47,82.1,,,,,,,,,,,220,-227.5,-227.5,220,,220
1,Andrey Gornovoy,Андрей Горновой,90,M,D,Raw,Yes,Teen 15-19,2002-12-15,16,87.2,,,,,,,,,,,115,125,135,135,,135
1,Andrey Neklyudov,Андрей Неклюдов,90,M,D,Raw,Yes,Juniors 20-23,1996-11-24,22,83.4,,,,,,,,,,,-195,195,-202.5,195,,195
1,Vitaliy Tarasov,Виталий Тарасов,90,M,D,Raw,Yes,Open,1977-06-09,42,87.5,,,,,,,,,,,210,220,227.5,227.5,,227.5
2,Elnur Aliev,Эльнур Алиев,90,M,D,Raw,Yes,Open,1982-03-09,37,88.5,,,,,,,,,,,200,220,-227.5,220,,220
3,Evgeniy Semenchenko,Евгений Семенченко,90,M,D,Raw,Yes,Open,1984-12-16,34,88.4,,,,,,,,,,,160,175,180,180,,180
DQ,Kirill Lomanov,Кирилл Ломанов,90,M,D,Raw,Yes,Open,1987-07-15,32,89.2,,,,,,,,,,,-300,-300,,,,
1,Vitaliy Tarasov,Виталий Тарасов,90,M,D,Raw,Yes,Masters 40-44,1977-06-09,42,87.5,,,,,,,,,,,210,220,227.5,227.5,,227.5
1,Ivan Kachaev,Иван Качаев,100,M,D,Raw,Yes,Juniors 20-23,1996-11-05,22,95.2,,,,,,,,,,,220,-237.5,-237.5,220,,220
1,Roman Moiseev,Роман Моисеев,100,M,D,Raw,Yes,Open,1990-11-27,28,95.1,,,,,,,,,,,255,260,265,265,,265
2,Aleksandr Shlyakhitskiy,Александр Шляхитский,100,M,D,Raw,Yes,Open,1980-02-09,39,98.2,,,,,,,,,,,240,260,-272.5,260,,260
3,Ivan Bogachev,Иван Богачев,100,M,D,Raw,Yes,Open,1978-06-08,41,97.4,,,,,,,,,,,225,235,-242.5,235,,235
1,Ivan Bogachev,Иван Богачев,100,M,D,Raw,Yes,Masters 40-44,1978-06-08,41,97.4,,,,,,,,,,,225,235,-242.5,235,,235
1,Sergey Nikishin,Сергей Никишин,100,M,D,Raw,Yes,Masters 45-49,1971-07-05,48,99.2,,,,,,,,,,,225,230,-240,230,,230
2,Aleksey Kovalenko,Алексей Коваленко,100,M,D,Raw,Yes,Masters 45-49,1972-01-07,47,99.3,,,,,,,,,,,-195,205,217.5,217.5,,217.5
3,Vladislav Mikhaylenko,Владислав Михайленко,100,M,D,Raw,Yes,Masters 45-49,1973-01-27,46,99.6,,,,,,,,,,,180,190,-192.5,190,,190
1,Andrey Gaposhko,Андрей Гапошко,125,M,D,Raw,Yes,Open,1986-04-11,33,111.7,,,,,,,,,,,250,260,-265,260,,260
2,Andrey Dyachev,Андрей Дьячев,125,M,D,Raw,Yes,Open,1984-04-15,35,110.9,,,,,,,,,,,230,240,250,250,,250
1,Dmitriy Skachkov,Дмитрий Скачков,140+,M,D,Raw,Yes,Masters 40-44,1977-02-22,42,146.2,,,,,,,,,,,285,-292.5,292.5,292.5,,292.5
