Division,WeightClassKg,Place,Name,Team,BodyweightKg,Best3SquatKg,Best3BenchKg,Best3DeadliftKg,TotalKg,Equipment,Event,Sex
Boys,51.71,1,Miguel Hernandez,Emory Rains,49.9,136.08,74.84,151.95,362.87,Single-ply,SBD,M
Boys,51.71,2,Matthew Solomon,Texarkana Liberty-Eylau,51.26,142.88,68.04,136.08,347,Single-ply,SBD,M
Boys,51.71,3,Wylie Brown,Nacogdoches,51.26,127.01,72.57,136.08,335.66,Single-ply,SBD,M
Boys,51.71,4,Jakovan Williams,Nacogdoches,51.53,127.01,58.97,142.88,328.85,Single-ply,SBD,M
Boys,55.79,5,Caleb Bush,Elysian Fields,51.8,104.33,65.77,113.4,283.5,Single-ply,SBD,M
Boys,51.71,6,Justin Dowdy,Wills Point,44.91,104.33,58.97,111.13,274.42,Single-ply,SBD,M
Boys,51.71,7,Justiss Pilgram,White Oak,41.73,72.57,43.09,86.18,201.85,Single-ply,SBD,M
Boys,55.79,DQ,Ryder Brock,Detroit,51.94,,,,,Single-ply,SBD,M
Boys,55.79,1,Angel Ross,Quitman,53.98,117.93,77.11,145.15,340.19,Single-ply,SBD,M
Boys,55.79,2,Christian Fisk,Longview Pine Tree,53.52,129.27,65.77,142.88,337.93,Single-ply,SBD,M
Boys,55.79,3,MeKenzie Davis,Texarkana Liberty-Eylau,54.88,124.74,68.04,120.2,312.98,Single-ply,SBD,M
Boys,55.79,4,Camron King,Marshall,53.98,136.08,49.9,124.74,310.71,Single-ply,SBD,M
Boys,55.79,5,Colton Martin,Elysian Fields,55.34,97.52,65.77,142.88,306.17,Single-ply,SBD,M
Boys,59.87,6,David Blackwell,Nacogdoches,56.02,131.54,52.16,122.47,306.17,Single-ply,SBD,M
Boys,59.87,7,Darrell Taylor,Marshall,56.02,108.86,61.23,124.74,294.84,Single-ply,SBD,M
Boys,55.79,8,Justin Kranhg,Marshall,54.43,74.84,61.23,108.86,244.94,Single-ply,SBD,M
Boys,55.79,DQ,Caleb Terrell,Frankston,55.34,,,,,Single-ply,SBD,M
Boys,67.13,1,Tj Howard,Texarkana Liberty-Eylau,59.96,185.97,113.4,192.78,492.15,Single-ply,SBD,M
Boys,67.13,2,Terrence Butler,Texarkana Texas,59.96,158.76,81.65,181.44,421.84,Single-ply,SBD,M
Boys,59.87,3,Justin Johnson,Mount Enterprise,59.69,165.56,83.91,158.76,408.23,Single-ply,SBD,M
Boys,59.87,4,Micah Ethington,Nacogdoches,59.6,151.95,79.38,158.76,390.09,Single-ply,SBD,M
Boys,59.87,5,Andrew Legrand,Texarkana Texas,57.52,124.74,74.84,124.74,324.32,Single-ply,SBD,M
Boys,59.87,6,Paco Chavez,Laird Hill Leveretts Chapel,58.97,102.06,52.16,117.93,272.16,Single-ply,SBD,M
Boys,74.84,1,Jesse Hudson,Emory Rains,67.31,188.24,102.06,204.12,494.42,Single-ply,SBD,M
Boys,67.13,2,Edgar Simmons,Marshall,61.69,179.17,111.13,176.9,467.2,Single-ply,SBD,M
Boys,67.13,3,Rod Howard,Texarkana Liberty-Eylau,64.41,170.1,111.13,183.7,464.93,Single-ply,SBD,M
Boys,67.13,4,Kentrun Pemberton,Texarkana Liberty-Eylau,60.42,176.9,111.13,167.83,455.86,Single-ply,SBD,M
Boys,67.13,5,Justin Vanderwater,Laird Hill Leveretts Chapel,62.6,172.37,104.33,176.9,453.59,Single-ply,SBD,M
Boys,67.13,6,Javonte Parker,Marshall,61.23,185.97,72.57,176.9,435.45,Single-ply,SBD,M
Boys,67.13,7,Tanner Roberts,Detroit,66.68,149.69,102.06,174.63,426.38,Single-ply,SBD,M
Boys,67.13,8,Brandon Small,White Oak,65.77,158.76,92.99,172.37,424.11,Single-ply,SBD,M
Boys,67.13,9,Justin Bledsoe,Longview Pine Tree,67.13,145.15,92.99,172.37,410.5,Single-ply,SBD,M
Boys,67.13,10,Dustin Harrison,White Oak,64.86,145.15,83.91,154.22,383.29,Single-ply,SBD,M
Boys,67.13,11,Thomas Aguilar,Emory Rains,64.86,127.01,68.04,149.69,344.73,Single-ply,SBD,M
Boys,67.13,12,Taylor Lang,Elysian Fields,66.22,136.08,70.31,129.27,335.66,Single-ply,SBD,M
Boys,67.13,13,Cullum Ditmore,Elysian Fields,63.05,99.79,58.97,136.08,294.84,Single-ply,SBD,M
Boys,67.13,DQ,Essau Tureios,Quitman,63.5,,,,,Single-ply,SBD,M
Boys,74.84,1,Jacovin Coats,Marshall,72.12,226.8,111.13,244.94,582.87,Single-ply,SBD,M
Boys,74.84,2,Jason Haley,Texarkana Liberty-Eylau,74.84,238.14,106.59,226.8,571.53,Single-ply,SBD,M
Boys,74.84,3,De'Shun Brewer,Texarkana Liberty-Eylau,71.49,195.04,136.08,226.8,557.92,Single-ply,SBD,M
Boys,74.84,4,Dk Calloway,Carthage,73.94,213.19,129.27,213.19,555.65,Single-ply,SBD,M
Boys,74.84,5,Santos Estrada,Hallsville,73.48,183.7,136.08,210.92,530.7,Single-ply,SBD,M
Boys,74.84,6,Lloyd Douglass,Texarkana Texas,74.03,192.78,120.2,204.12,517.1,Single-ply,SBD,M
Boys,74.84,7,James Wright #1,Wills Point,74.39,210.92,115.67,190.51,517.1,Single-ply,SBD,M
Boys,74.84,8,Nolan Allen,Marshall,69.85,204.12,99.79,192.78,496.68,Single-ply,SBD,M
Boys,74.84,9,Kensha Talley,Marshall,72.12,185.97,102.06,197.31,485.34,Single-ply,SBD,M
Boys,74.84,10,Everett Dickerson,Atlanta,73.94,183.7,86.18,199.58,469.47,Single-ply,SBD,M
Boys,74.84,11,Cason Fogle,Diana New Diana,74.66,172.37,113.4,176.9,462.66,Single-ply,SBD,M
Boys,74.84,12,Hayden Huges,White Oak,71.67,181.44,102.06,176.9,460.4,Single-ply,SBD,M
Boys,82.1,13,Larry Murphy,Texarkana Texas,75.02,181.44,104.33,172.37,458.13,Single-ply,SBD,M
Boys,74.84,14,Ronnie Roberts,Nacogdoches,72.12,165.56,97.52,190.51,453.59,Single-ply,SBD,M
Boys,74.84,15,Paulo Cagol,Marshall,73.03,172.37,104.33,176.9,453.59,Single-ply,SBD,M
Boys,74.84,16,Cameron Slay,Jefferson,70.99,174.63,92.99,181.44,449.06,Single-ply,SBD,M
Boys,74.84,17,Matthew Morris,Laird Hill Leveretts Chapel,71.85,176.9,92.99,176.9,446.79,Single-ply,SBD,M
Boys,74.84,18,Demarquis Gulley,Texarkana Texas,68.86,179.17,90.72,174.63,444.52,Single-ply,SBD,M
Boys,74.84,19,Jesse Navarro,Hallsville,73.48,161.03,111.13,170.1,442.25,Single-ply,SBD,M
Boys,74.84,20,Christian Darter,Emory Rains,74.39,170.1,104.33,167.83,442.25,Single-ply,SBD,M
Boys,74.84,21,JR Rodgers,Laird Hill Leveretts Chapel,69.4,136.08,104.33,183.7,424.11,Single-ply,SBD,M
Boys,74.84,22,Levi Roberts,Atlanta,72.21,170.1,88.45,158.76,417.3,Single-ply,SBD,M
Boys,74.84,23,Jonathan Pruden,Quitman,70.31,129.27,113.4,161.03,403.7,Single-ply,SBD,M
Boys,74.84,24,Zhymel Bowie,Jefferson,73.66,147.42,97.52,147.42,392.36,Single-ply,SBD,M
Boys,74.84,25,Justin Brown,Elysian Fields,68.49,142.88,83.91,158.76,385.55,Single-ply,SBD,M
Boys,74.84,26,Foxx Smith,Redwater,69.76,154.22,90.72,136.08,381.02,Single-ply,SBD,M
Boys,74.84,27,Terry Dickerson,Atlanta,68.04,129.27,83.91,158.76,371.95,Single-ply,SBD,M
Boys,74.84,28,Ty Evans #3,White Oak,70.31,108.86,79.38,131.54,319.78,Single-ply,SBD,M
Boys,74.84,29,Gannon Brown,Emory Rains,74.39,163.29,120.2,,283.5,Single-ply,SB,M
Boys,74.84,30,Sam Brewer,Gladewater Union Grove,68.22,104.33,68.04,106.59,278.96,Single-ply,SBD,M
Boys,74.84,DQ,Shane Stanley,Mount Enterprise,74.84,,,,,Single-ply,SBD,M
Boys,89.81,1,Travis Turner,Texarkana Texas,82.19,272.16,142.88,226.8,641.83,Single-ply,SBD,M
Boys,89.81,2,Austin Pitts,Marshall,82.28,204.12,136.08,215.46,555.65,Single-ply,SBD,M
Boys,82.1,3,Caleb Williams,Frankston,81.19,188.24,115.67,238.14,542.04,Single-ply,SBD,M
Boys,82.1,4,Jon Hines,Emory Rains,79.29,222.26,111.13,204.12,537.51,Single-ply,SBD,M
Boys,82.1,5,Michael Jones,Emory Rains,79.47,176.9,115.67,233.6,526.17,Single-ply,SBD,M
Boys,82.1,6,Josh Presson,White Oak,75.75,190.51,117.93,213.19,521.63,Single-ply,SBD,M
Boys,82.1,7,Brandon Wesley,Diana New Diana,81.19,192.78,111.13,199.58,503.49,Single-ply,SBD,M
Boys,82.1,8,Grant Russel,Emory Rains,80.29,163.29,115.67,201.85,480.81,Single-ply,SBD,M
Boys,82.1,9,Keyotrick Brown,Longview Pine Tree,80.74,181.44,102.06,195.04,478.54,Single-ply,SBD,M
Boys,82.1,10,Shawn Smith,Nacogdoches,80.74,185.97,92.99,195.04,474,Single-ply,SBD,M
Boys,82.1,11,Brady Willbanks,Longview Pine Tree,79.02,167.83,131.54,172.37,471.74,Single-ply,SBD,M
Boys,82.1,12,Bruce Woods,Elysian Fields,79.83,170.1,113.4,188.24,471.74,Single-ply,SBD,M
Boys,82.1,13,Joseph Singletary,Nacogdoches,77.56,163.29,102.06,199.58,464.93,Single-ply,SBD,M
Boys,82.1,14,Trevor Morgan,Hallsville,79.38,154.22,97.52,181.44,433.18,Single-ply,SBD,M
Boys,82.1,15,Felipe Amaro,Laird Hill Leveretts Chapel,80.74,163.29,99.79,167.83,430.91,Single-ply,SBD,M
Boys,82.1,16,Heath Knight,Gladewater Union Grove,78.74,140.61,95.25,165.56,401.43,Single-ply,SBD,M
Boys,82.1,17,David Jackson,Carthage,80.74,136.08,90.72,174.63,401.43,Single-ply,SBD,M
Boys,82.1,18,AJ Rose,Hallsville,76.2,115.67,122.47,149.69,387.82,Single-ply,SBD,M
Boys,82.1,19,Chance Hattan,Elysian Fields,80.74,136.08,79.38,163.29,378.75,Single-ply,SBD,M
Boys,82.1,20,Chris Pierce,Laird Hill Leveretts Chapel,81.19,138.35,92.99,138.35,369.68,Single-ply,SBD,M
Boys,82.1,21,Kolton Turner,Laird Hill Leveretts Chapel,78.02,124.74,77.11,131.54,333.39,Single-ply,SBD,M
Boys,89.81,1,Kederrick Holmes,Texarkana Liberty-Eylau,89.81,238.14,138.35,240.4,616.89,Single-ply,SBD,M
Boys,99.79,2,Taylor Lollis,Texarkana Liberty-Eylau,89.9,226.8,147.42,238.14,612.35,Single-ply,SBD,M
Boys,89.81,3,Kevin Jones #9,Elysian Fields,85.73,222.26,140.61,240.4,603.28,Single-ply,SBD,M
Boys,89.81,4,Roderick Boyd,Hallsville,85.73,240.4,136.08,210.92,587.4,Single-ply,SBD,M
Boys,89.81,5,Taylor Lrgon,Diana New Diana,88,226.8,145.15,185.97,557.92,Single-ply,SBD,M
Boys,89.81,6,Andrew Chirwa,Texarkana Texas,87.09,240.4,120.2,183.7,544.31,Single-ply,SBD,M
Boys,99.79,7,Kenderson Cooks,Marshall,89.9,219.99,113.4,210.92,544.31,Single-ply,SBD,M
Boys,89.81,8,Quintavious Neal,Atlanta,89.81,185.97,95.25,204.12,485.34,Single-ply,SBD,M
Boys,89.81,9,Dan Davis,Atlanta,84.55,165.56,113.4,204.12,483.08,Single-ply,SBD,M
Boys,89.81,10,Chris Furgason,Longview Pine Tree,86.64,167.83,113.4,188.24,469.47,Single-ply,SBD,M
Boys,89.81,11,Alex Mowllet,Jefferson,89.81,158.76,88.45,142.88,390.09,Single-ply,SBD,M
Boys,89.81,12,Brett Workamn,Frankston,83.91,158.76,,,158.76,Single-ply,S,M
Boys,89.81,13,Tony Gresham,Mount Enterprise,84.82,136.08,,,136.08,Single-ply,S,M
Boys,99.79,1,Dekota Newson,Marshall,97.07,294.84,147.42,263.08,705.34,Single-ply,SBD,M
Boys,99.79,2,Morocco Arnold,Texarkana Liberty-Eylau,96.62,242.67,129.27,258.55,630.49,Single-ply,SBD,M
Boys,99.79,3,Blake McCown,Texarkana Texas,94.71,231.33,142.88,254.01,628.23,Single-ply,SBD,M
Boys,99.79,4,Corey Lowe,Texarkana Texas,96.43,215.46,120.2,199.58,535.24,Single-ply,SBD,M
Boys,99.79,5,Cole Davis,Atlanta,91.63,199.58,104.33,206.38,510.29,Single-ply,SBD,M
Boys,99.79,6,Gustavo Solis,Longview Pine Tree,98.43,183.7,120.2,201.85,505.76,Single-ply,SBD,M
Boys,99.79,7,Tad Clark,Diana New Diana,99.16,192.78,106.59,204.12,503.49,Single-ply,SBD,M
Boys,99.79,8,Deshanti Holloway,Atlanta,93.44,192.78,83.91,206.38,483.08,Single-ply,SBD,M
Boys,99.79,9,K'Aelin Ware,Carthage,93.89,185.97,95.25,192.78,474,Single-ply,SBD,M
Boys,99.79,10,Jessie Harris,Laird Hill Leveretts Chapel,97.52,176.9,99.79,190.51,467.2,Single-ply,SBD,M
Boys,99.79,11,Jacob Smith,Longview Pine Tree,91.17,158.76,106.59,197.31,462.66,Single-ply,SBD,M
Boys,99.79,12,Cade Clinton,Carthage,97.52,161.03,113.4,181.44,455.86,Single-ply,SBD,M
Boys,99.79,13,Chris Myers,White Oak,91.63,172.37,86.18,181.44,439.98,Single-ply,SBD,M
Boys,99.79,14,Alex Gavin,Nacogdoches,96.62,163.29,90.72,181.44,435.45,Single-ply,SBD,M
Boys,99.79,15,Justin Caldwell,Frankston,97.52,149.69,88.45,154.22,392.36,Single-ply,SBD,M
Boys,99.79,16,Collin Ferrell,Gladewater Union Grove,98.34,129.27,97.52,149.69,376.48,Single-ply,SBD,M
Boys,99.79,17,Trey Chain,White Oak,97.52,129.27,92.99,140.61,362.87,Single-ply,SBD,M
Boys,99.79,18,Hunter Jeans,Marshall,90.17,181.44,90.72,,272.16,Single-ply,SB,M
Boys,99.79,19,John David Pennington,White Oak,97.07,124.74,,,124.74,Single-ply,S,M
Boys,99.79,DQ,Jacobie Briscoe,Laird Hill Leveretts Chapel,97.07,,,,,Single-ply,S,M
Boys,124.74,1,Ben Jaeger,Emory Rains,109.86,244.94,170.1,263.08,678.12,Single-ply,SBD,M
Boys,109.77,2,Colby Spencer,Cushing,108.86,238.14,124.74,229.06,591.94,Single-ply,SBD,M
Boys,109.77,3,Ke'Adric Nelson,Canton,109.23,240.4,122.47,226.8,589.67,Single-ply,SBD,M
Boys,109.77,4,Zacchaeus Price,Texarkana Liberty-Eylau,102.06,240.4,122.47,208.65,571.53,Single-ply,SBD,M
Boys,109.77,5,Tray King,Hallsville,100.7,222.26,127.01,204.12,553.38,Single-ply,SBD,M
Boys,109.77,6,Joey Lenard,Atlanta,106.23,201.85,122.47,229.06,553.38,Single-ply,SBD,M
Boys,109.77,7,Xavier Gordon,Nacogdoches,109.32,219.99,124.74,204.12,548.85,Single-ply,SBD,M
Boys,109.77,8,Jeff Davis,White Oak,105.69,213.19,115.67,208.65,537.51,Single-ply,SBD,M
Boys,109.77,9,Jason Heim,White Oak,109.32,195.04,104.33,190.51,489.88,Single-ply,SBD,M
Boys,109.77,10,Cody Forbes,Marshall,102.51,190.51,102.06,176.9,469.47,Single-ply,SBD,M
Boys,109.77,11,Will Harris,Carthage,100.7,172.37,86.18,190.51,449.06,Single-ply,SBD,M
Boys,109.77,12,Tanner Stinson,Carthage,108.86,174.63,83.91,174.63,433.18,Single-ply,SBD,M
Boys,109.77,13,Dillon Husar,Carthage,102.06,165.56,97.52,161.03,424.11,Single-ply,SBD,M
Boys,109.77,14,Thornton Berry,Hallsville,102.97,147.42,97.52,,244.94,Single-ply,SB,M
Boys,109.77,15,Justin Smith #22,Hallsville,100.7,188.24,,,188.24,Single-ply,S,M
Boys,109.77,16,Maris McCain,Carthage,100.24,185.97,,,185.97,Single-ply,S,M
Boys,124.74,1,Justin Lewis,Texarkana Texas,117.75,272.16,145.15,238.14,655.44,Single-ply,SBD,M
Boys,124.74,2,Chris Paul,Texarkana Liberty-Eylau,115.21,240.4,158.76,226.8,625.96,Single-ply,SBD,M
Boys,124.74,3,Casey Hargrove,Emory Rains,116.03,224.53,142.88,240.4,607.81,Single-ply,SBD,M
Boys,124.74,4,Colton Byler,Mount Enterprise,112.94,254.01,129.27,222.26,605.55,Single-ply,SBD,M
Boys,124.74,5,William Mitchell,Longview Pine Tree,111.58,238.14,138.35,206.38,582.87,Single-ply,SBD,M
Boys,124.74,6,Hayden Hart,Texarkana Liberty-Eylau,117.93,219.99,142.88,199.58,562.45,Single-ply,SBD,M
Boys,124.74,7,Alex Ellis,Texarkana Texas,113.04,226.8,120.2,210.92,557.92,Single-ply,SBD,M
Boys,124.74,8,Brandon Parkman,Atlanta,113.67,204.12,129.27,195.04,528.44,Single-ply,SBD,M
Boys,124.74,9,Cody Bryce,Nacogdoches,120.11,215.46,102.06,210.92,528.44,Single-ply,SBD,M
Boys,124.74,10,Jared Lincoln,Atlanta,121.65,183.7,140.61,192.78,517.1,Single-ply,SBD,M
Boys,124.74,11,Dexter Clough,Carthage,122.02,197.31,136.08,183.7,517.1,Single-ply,SBD,M
Boys,124.74,12,Katrail Flanagan,Marshall,115.67,199.58,108.86,183.7,492.15,Single-ply,SBD,M
Boys,124.74,13,Griffin Bankhead,Carthage,124.28,167.83,99.79,174.63,442.25,Single-ply,SBD,M
Boys,124.74,14,McKellar Karr,Diana New Diana,112.04,149.69,120.2,156.49,426.38,Single-ply,SBD,M
Boys,124.74,15,Lyle Owens,White Oak,113.85,158.76,108.86,138.35,405.97,Single-ply,SBD,M
Boys,124.74,16,Garret Bowery,Gladewater Union Grove,121.2,147.42,90.72,149.69,387.82,Single-ply,SBD,M
Boys,124.74+,1,Jonathan Northcutt,Emory Rains,130.63,274.42,204.12,274.42,752.96,Single-ply,SBD,M
Boys,124.74+,2,Joshua Byrd,Marshall,141.97,294.84,158.76,240.4,694,Single-ply,SBD,M
Boys,124.74+,3,Jensen Jackson,Marshall,126.1,249.48,158.76,231.33,639.57,Single-ply,SBD,M
Boys,124.74+,4,Trey Villareal,Diana New Diana,145.15,226.8,127.01,235.87,589.67,Single-ply,SBD,M
Boys,124.74+,5,Marquan Edmond,Texarkana Liberty-Eylau,167.83,240.4,158.76,190.51,589.67,Single-ply,SBD,M
Boys,124.74+,6,Kason Willis,Atlanta,130.45,215.46,122.47,231.33,569.26,Single-ply,SBD,M
Boys,124.74+,7,Dakota Brooks,Marshall,134.72,226.8,131.54,195.04,553.38,Single-ply,SBD,M
Boys,124.74+,8,Uriel Scott,Nacogdoches,147.42,174.63,104.33,140.61,419.57,Single-ply,SBD,M
Boys,124.74+,9,Hunter Fountain,Elysian Fields,133.17,181.44,,,181.44,Single-ply,S,M
Boys,124.74+,DQ,Cody Hayes,Laird Hill Leveretts Chapel,150.59,,,,,Single-ply,S,M
